2021-01-30,0fea37,2,4,02,1,02,02,004,2,2020-07-02,2020-06-19,2020-07-30,2,2,66,1,2,2,2,1,2,2,2,1,1,2,2,1,2,99,1,1,2,97,3,99,México,97,2
2021-01-30,0dec55,2,12,02,1,14,02,004,2,2020-07-10,2020-07-08,2020-07-30,2,2,54,1,2,2,2,1,2,2,2,1,2,2,2,2,2,99,1,1,2,97,3,99,México,97,2
2021-01-30,16335e,1,4,02,2,21,02,004,2,2020-07-07,2020-07-07,2020-07-30,2,2,5,1,97,2,2,98,98,98,98,98,1,98,2,98,98,99,1,2,2,97,7,99,México,97,1
2021-01-30,0f7861,1,12,02,1,02,02,004,2,2020-07-18,2020-07-09,2020-07-30,2,1,57,1,2,99,99,2,2,2,2,2,2,2,2,2,1,99,1,1,2,97,3,99,México,97,2
2021-01-30,1459c6,1,12,02,1,14,02,004,2,2020-07-19,2020-07-18,2020-07-30,1,1,51,1,2,99,99,2,2,2,2,1,2,2,2,2,2,99,1,1,2,97,3,99,México,97,2
2021-01-30,06f622,2,4,02,1,02,02,004,2,2020-07-20,2020-07-17,2020-07-30,2,2,62,1,2,2,2,2,2,2,2,1,2,2,2,2,2,99,1,1,2,97,3,99,México,97,2
2021-01-30,1dfcd3,1,12,02,1,02,02,004,2,2020-07-21,2020-07-14,2020-07-30,1,1,54,1,2,99,99,2,2,2,2,1,2,2,2,2,2,99,1,1,2,97,3,99,México,97,2
2021-01-30,134511,2,4,02,2,07,02,004,2,2020-07-24,2020-07-17,2020-07-30,2,2,79,1,97,2,2,2,2,2,2,2,2,2,2,2,2,99,1,1,2,97,3,99,México,97,2
2021-01-30,0a913f,2,4,02,2,21,02,004,2,2020-07-25,2020-07-22,2020-07-30,2,1,51,1,97,2,2,2,2,2,1,2,1,2,2,2,1,99,1,2,2,97,7,99,México,97,2
2021-01-30,14def0,2,12,02,2,25,02,004,2,2020-07-26,2020-07-21,2020-07-30,2,2,77,1,97,2,2,2,2,2,2,2,2,2,2,2,2,99,1,2,2,97,7,99,México,97,2
2021-01-30,0a6654,2,4,02,1,09,02,004,2,2020-07-28,2020-07-25,2020-07-30,2,1,53,1,2,2,2,1,2,2,2,1,2,2,2,1,2,99,1,1,2,97,3,99,México,97,2
2021-01-30,19572c,1,4,02,2,02,02,004,2,2020-07-28,2020-07-25,2020-07-30,2,2,5,1,97,2,2,2,2,2,2,2,2,2,2,2,2,2,2,97,2,97,6,99,México,97,2
2021-01-30,01fd7b,1,4,02,1,14,02,004,2,2020-07-29,2020-07-29,2020-07-30,2,2,75,1,2,2,2,1,2,2,2,1,2,2,2,2,2,2,2,97,2,97,6,99,México,97,2
