2021-01-30,06cdcf,2,4,02,2,12,02,004,2,2020-06-10,2020-05-28,2020-09-16,2,2,75,1,97,2,2,2,2,2,2,2,2,2,2,2,1,2,1,1,2,97,3,99,México,97,2
2021-01-30,15bc8a,2,4,02,1,14,02,004,2,2020-07-31,2020-07-27,2020-09-16,2,2,63,1,2,2,2,1,2,2,2,1,2,2,2,2,2,2,1,1,2,97,3,99,México,97,2
2021-01-30,39525f,1,12,02,2,21,02,004,2,2020-09-03,2020-08-27,2020-09-16,2,1,76,1,97,2,2,2,2,2,2,1,2,2,2,2,2,1,1,1,2,97,3,99,México,97,2
2021-01-30,341c81,2,4,02,2,24,02,004,2,2020-09-06,2020-08-30,2020-09-16,2,1,65,1,97,2,2,1,2,2,2,2,2,2,2,2,1,2,1,1,2,97,3,99,México,97,2
2021-01-30,3fec48,2,4,02,1,32,02,004,2,2020-09-06,2020-08-30,2020-09-16,2,1,73,1,2,2,2,1,2,1,2,2,2,2,2,2,2,1,1,1,2,97,3,99,México,97,2
2021-01-30,29fb6e,1,12,02,2,25,02,004,2,2020-09-05,2020-09-01,2020-09-16,1,1,76,1,97,99,99,2,2,2,2,1,2,2,1,2,2,2,1,1,2,97,3,99,México,97,2
2021-01-30,380192,2,4,02,1,18,02,004,2,2020-09-16,2020-09-06,2020-09-16,1,1,48,1,2,2,2,2,2,2,2,2,2,2,2,1,2,2,1,1,2,97,3,99,México,97,2
2021-01-30,3ddfc5,2,4,02,1,14,02,004,2,2020-09-16,2020-09-02,2020-09-16,2,1,51,1,2,2,2,2,2,2,2,2,1,2,2,2,2,2,1,4,2,97,6,99,México,97,2
