2021-01-30,1a92c3,1,12,02,1,10,02,004,2,2020-05-25,2020-05-18,2020-06-18,2,1,65,1,2,2,2,2,2,2,2,2,2,2,2,2,2,2,1,2,2,97,7,99,México,97,2
2021-01-30,18be4c,1,12,02,1,17,02,004,2,2020-05-27,2020-05-20,2020-06-18,2,1,61,1,2,2,2,2,2,2,2,2,2,2,2,2,2,2,1,1,2,97,3,99,México,97,2
2021-01-30,0068be,2,4,02,1,25,02,004,2,2020-05-29,2020-05-24,2020-06-18,2,2,58,1,2,2,2,1,2,2,2,1,2,2,2,2,2,99,1,1,2,97,3,99,México,97,2
2021-01-30,11c266,1,12,02,2,02,02,004,2,2020-06-02,2020-06-01,2020-06-18,1,2,58,1,97,2,2,2,2,2,2,2,2,2,2,2,2,2,1,2,2,97,7,99,México,97,1
2021-01-30,00cef8,1,4,02,1,02,02,004,2,2020-06-02,2020-05-28,2020-06-18,2,1,75,1,2,2,2,2,2,2,2,2,2,2,2,2,2,99,1,1,2,97,3,99,México,97,2
2021-01-30,0231ac,1,12,02,2,02,02,004,2,2020-06-04,2020-05-30,2020-06-18,2,1,60,1,97,2,2,2,2,2,2,2,2,2,2,2,2,2,1,1,2,97,3,99,México,97,2
2021-01-30,0dc3b0,2,4,02,2,09,02,004,2,2020-06-04,2020-05-28,2020-06-18,2,1,72,1,97,2,2,2,2,2,2,2,2,2,2,2,2,99,1,1,2,97,3,99,México,97,2
2021-01-30,0ff1e7,1,12,02,2,99,02,004,2,2020-06-05,2020-05-29,2020-06-18,2,1,48,2,97,2,2,1,2,2,2,1,2,2,2,2,2,2,1,2,2,97,7,2,Otro,97,2
2021-01-30,012c90,1,12,02,2,02,02,004,2,2020-06-07,2020-06-01,2020-06-18,2,1,49,1,97,2,2,2,2,2,2,2,2,2,1,2,2,2,1,2,2,97,7,99,México,97,2
2021-01-30,1e603a,2,4,02,1,11,02,004,2,2020-06-08,2020-05-30,2020-06-18,2,2,67,1,2,2,2,1,2,2,2,1,2,2,1,2,2,99,1,1,2,97,3,99,México,97,2
2021-01-30,08800c,1,12,02,1,14,02,004,2,2020-06-08,2020-06-01,2020-06-18,2,1,84,1,2,2,2,2,2,2,2,1,2,2,2,2,2,2,1,1,2,97,3,99,México,97,2
2021-01-30,0cc44f,1,12,02,2,02,02,004,2,2020-06-11,2020-06-10,2020-06-18,2,2,65,1,97,2,2,98,98,98,98,98,98,98,98,98,98,2,1,2,2,97,7,99,México,97,2
2021-01-30,1be36b,2,4,02,2,12,02,004,2,2020-06-16,2020-06-15,2020-06-18,2,1,44,1,97,2,2,2,2,2,2,2,1,2,2,2,2,99,1,1,2,97,3,99,México,97,2
2021-01-30,052e06,1,4,02,1,14,02,004,2,2020-06-17,2020-06-13,2020-06-18,2,2,69,1,2,2,2,1,2,2,2,2,2,2,2,2,2,99,1,1,2,97,3,99,México,97,2
