2021-01-30,196dc5,2,4,02,2,21,02,004,2,2020-04-04,2020-04-04,2020-04-16,1,1,66,1,97,2,2,2,2,2,2,2,2,2,2,2,2,99,1,1,2,97,3,99,México,97,2
2021-01-30,08f5f3,2,4,02,1,25,02,004,2,2020-04-09,2020-04-01,2020-04-16,1,1,68,1,2,2,2,2,2,2,2,1,1,2,2,2,2,99,1,1,2,97,3,99,México,97,2
2021-01-30,01642b,1,12,02,1,30,02,004,2,2020-04-12,2020-04-12,2020-04-16,1,1,41,1,2,2,2,1,2,2,2,1,2,2,2,2,2,99,1,1,2,97,3,99,México,97,2
2021-01-30,1b62b3,1,4,02,2,25,02,004,2,2020-04-13,2020-04-13,2020-04-16,1,1,58,1,97,2,2,1,2,2,2,2,2,2,2,2,2,99,1,1,2,97,3,99,México,97,2
2021-01-30,107395,1,4,02,1,18,02,004,2,2020-04-12,2020-04-12,2020-04-16,1,1,81,1,2,2,2,2,2,2,2,1,1,2,2,1,2,99,1,1,2,97,3,99,México,97,2
2021-01-30,08f319,1,12,02,2,02,02,004,2,2020-04-12,2020-04-10,2020-04-16,2,2,75,1,97,2,2,2,2,2,2,2,2,2,2,2,2,1,1,1,2,97,3,99,México,97,2
2021-01-30,0327b2,1,12,02,2,02,02,004,2,2020-04-14,2020-04-10,2020-04-16,2,1,59,1,97,2,2,1,2,2,2,2,2,2,2,2,2,1,1,1,2,97,3,99,México,97,2
2021-01-30,0c8fa0,1,4,02,1,09,02,004,2,2020-04-13,2020-04-09,2020-04-16,2,1,64,1,2,2,2,2,2,2,2,1,1,2,1,2,2,99,1,1,2,97,3,99,México,97,2
2021-01-30,1d8d13,1,4,02,1,25,02,004,2,2020-04-14,2020-04-10,2020-04-16,2,1,86,1,2,2,2,2,2,2,2,1,2,2,1,1,2,99,2,97,2,97,6,99,México,97,2
2021-01-30,1ddb65,2,4,02,2,07,02,004,2,2020-04-16,2020-04-02,2020-04-16,99,2,53,1,97,2,2,1,2,2,2,1,2,2,2,2,2,99,2,97,2,97,6,99,México,97,99
2021-01-30,0efec9,2,4,02,2,20,02,004,2,2020-04-04,2020-04-04,2020-04-16,1,1,42,1,97,2,2,2,2,2,2,1,2,2,1,2,2,2,2,97,2,97,6,99,México,97,2
2021-01-30,1b5cdd,2,4,02,1,07,02,004,2,2020-04-08,2020-04-08,2020-04-16,1,1,45,1,2,2,2,1,2,2,2,2,2,2,2,2,2,99,2,97,2,97,6,99,México,97,2
2021-01-30,10c22e,2,4,02,2,24,02,004,2,2020-04-14,2020-04-14,2020-04-16,2,2,73,1,97,2,2,1,2,2,2,1,2,2,2,2,2,99,2,97,2,97,6,99,México,97,2
2021-01-30,1cf322,1,12,02,2,02,02,004,2,2020-04-16,2020-04-09,2020-04-16,2,1,43,1,97,2,2,98,98,98,98,98,98,98,98,98,98,99,1,1,2,97,3,99,México,97,2
2021-01-30,0e81e6,2,4,02,1,25,02,004,2,2020-04-16,2020-04-15,2020-04-16,2,1,45,1,2,2,2,1,2,2,2,2,2,2,2,2,2,99,1,1,2,97,3,99,México,97,2
2021-01-30,0e03f5,2,4,02,2,20,02,004,2,2020-04-14,2020-04-09,2020-04-16,1,1,46,1,97,2,2,1,2,2,2,1,2,2,2,2,2,99,2,97,2,97,6,99,México,97,2
