2021-01-30,1d2ec1,1,12,02,2,02,02,004,2,2020-08-17,2020-08-10,2020-08-26,1,1,36,1,97,2,2,98,98,98,98,98,98,98,98,98,98,2,1,1,2,97,3,99,México,97,2
2021-01-30,10604a,1,12,02,2,11,02,004,2,2020-08-21,2020-08-14,2020-08-26,2,1,82,1,97,2,2,2,2,2,2,1,2,2,2,2,2,2,1,1,2,97,3,99,México,97,2
2021-01-30,11b603,2,4,02,2,25,02,004,2,2020-08-24,2020-08-22,2020-08-26,2,1,48,1,97,2,2,2,2,2,2,1,1,2,2,2,2,2,1,1,2,97,3,99,México,97,2
2021-01-30,125fe6,1,12,02,2,02,02,004,2,2020-08-25,2020-08-24,2020-08-26,1,1,50,1,97,99,99,98,98,98,98,98,98,98,98,98,98,99,1,1,2,97,3,99,México,97,2
