2021-01-30,177193,1,12,02,2,30,02,004,2,2020-08-11,2020-08-05,2020-09-02,1,1,52,1,97,2,2,1,2,2,2,1,2,2,2,2,2,2,1,1,2,97,3,99,México,97,2
2021-01-30,04bb87,1,12,02,1,20,02,004,2,2020-08-18,2020-08-08,2020-09-02,2,1,77,1,2,2,2,2,2,2,2,2,2,2,2,2,2,1,1,1,2,97,3,99,México,97,2
2021-01-30,1ad8a4,2,4,02,2,09,02,004,2,2020-08-22,2020-08-15,2020-09-02,2,1,68,1,97,2,2,2,2,2,2,2,2,2,1,2,2,2,1,1,2,97,3,99,México,97,2
2021-01-30,066a3f,2,4,02,2,06,02,004,2,2020-08-26,2020-08-21,2020-09-02,2,1,74,1,97,2,2,2,2,2,2,1,1,2,2,2,2,2,1,1,2,97,3,99,México,97,2
2021-01-30,1d19aa,2,4,02,1,02,02,004,2,2020-08-28,2020-08-25,2020-09-02,2,1,77,1,2,2,2,2,2,2,2,1,2,2,2,2,2,2,1,1,2,97,3,99,México,97,2
2021-01-30,0261ca,2,4,02,2,11,02,004,2,2020-08-28,2020-08-18,2020-09-02,2,1,83,1,97,2,2,1,2,2,2,1,2,2,1,2,2,2,1,1,2,97,3,99,México,97,2
2021-01-30,041a20,2,4,02,2,24,02,004,2,2020-08-30,2020-08-30,2020-09-02,2,1,50,1,97,2,2,1,2,2,2,1,2,2,2,1,2,2,1,2,2,97,7,99,México,97,2
2021-01-30,06b1bf,2,4,02,1,02,02,004,2,2020-09-01,2020-08-18,2020-09-02,2,1,54,1,2,2,2,1,2,2,2,1,2,2,1,1,2,2,1,1,2,97,3,99,México,97,2
2021-01-30,0fe31a,1,4,02,2,10,02,004,2,2020-09-02,2020-08-29,2020-09-02,2,2,86,1,97,2,2,2,2,2,2,1,2,2,2,2,2,2,1,1,2,97,3,99,México,97,2
