2021-01-30,43c5a4,2,9,02,2,09,02,004,2,2020-12-20,2020-12-18,2021-01-14,1,1,38,1,97,2,2,1,2,2,2,1,1,2,2,2,2,1,1,1,2,97,3,99,México,97,1
2021-01-30,44d715,2,4,02,2,11,02,004,2,2020-12-26,2020-12-12,2021-01-14,1,1,62,1,97,2,2,2,2,2,2,1,2,2,2,2,2,2,1,1,2,97,3,99,México,97,1
2021-01-30,228e32,2,4,02,2,07,02,004,2,2020-12-27,2020-12-23,2021-01-14,2,1,70,1,97,2,2,1,2,2,2,1,2,2,2,2,2,2,1,1,2,97,3,99,México,97,2
2021-01-30,3e6b1e,2,9,02,2,14,02,004,2,2020-12-25,2020-12-20,2021-01-14,1,1,80,1,97,2,2,2,2,2,2,2,2,2,2,2,2,1,1,1,2,97,3,99,México,97,1
2021-01-30,36e217,1,4,02,2,10,02,004,2,2020-12-31,2020-12-27,2021-01-14,1,2,75,1,97,2,2,1,2,2,2,1,2,2,2,2,2,2,1,1,2,97,3,99,México,97,2
2021-01-30,401797,2,4,02,2,13,02,004,2,2021-01-02,2020-12-28,2021-01-14,1,1,46,1,97,2,2,2,2,2,2,2,1,2,1,2,2,2,1,1,1,2,3,99,México,97,2
2021-01-30,451876,1,4,02,1,18,02,004,2,2021-01-03,2021-01-01,2021-01-14,2,2,47,1,2,2,2,1,2,2,2,1,2,2,1,2,2,2,1,2,1,2,7,99,México,97,2
2021-01-30,26b24c,2,4,02,2,16,02,004,2,2021-01-03,2021-01-02,2021-01-14,1,1,77,1,97,2,2,2,2,2,2,2,2,2,2,2,1,2,2,97,1,1,3,99,México,97,2
2021-01-30,2e34f7,2,4,02,2,14,02,004,2,2021-01-04,2021-01-01,2021-01-14,2,1,77,1,97,2,2,1,2,2,2,2,2,2,2,2,2,2,2,97,1,1,3,99,México,97,2
2021-01-30,31a4f7,2,4,02,2,02,02,004,2,2021-01-05,2020-12-23,2021-01-14,1,1,51,1,97,2,2,2,2,2,2,2,2,2,2,2,2,2,1,1,2,97,3,99,México,97,2
2021-01-30,2bd285,1,12,02,2,02,02,004,2,2021-01-05,2020-12-29,2021-01-14,2,1,55,1,97,99,99,2,2,2,2,2,2,2,2,2,2,2,1,1,2,97,3,99,México,97,2
2021-01-30,271e15,2,4,02,1,30,02,004,2,2021-01-06,2020-12-30,2021-01-14,2,1,78,1,2,2,2,1,2,2,2,1,2,2,2,2,2,2,2,97,1,1,3,99,México,97,2
2021-01-30,3126ae,2,4,02,2,30,02,004,2,2021-01-08,2020-12-24,2021-01-14,2,1,58,1,97,2,2,2,2,2,2,1,2,2,2,2,2,2,2,97,1,1,3,99,México,97,2
2021-01-30,3f51ac,2,4,02,2,26,02,004,2,2021-01-08,2021-01-05,2021-01-14,2,1,57,1,97,2,2,2,2,2,2,2,2,2,2,2,2,2,1,1,1,2,3,99,México,97,2
2021-01-30,2a1f76,2,4,02,2,16,02,004,2,2021-01-09,2020-12-26,2021-01-14,2,1,78,1,97,2,2,1,2,2,2,1,1,2,2,2,2,2,1,2,1,2,7,99,México,97,2
2021-01-30,3da094,2,4,02,1,02,02,004,2,2021-01-09,2020-12-26,2021-01-14,1,1,67,1,2,2,2,1,2,2,2,1,2,2,2,2,2,2,2,97,1,1,3,99,México,97,2
2021-01-30,200ee1,1,4,02,2,09,02,004,2,2021-01-11,2021-01-08,2021-01-14,2,1,64,1,97,2,2,1,2,2,2,1,2,2,2,2,1,2,1,1,1,1,3,99,México,97,2
2021-01-30,2680c3,2,4,02,2,09,02,004,2,2021-01-10,2021-01-06,2021-01-14,2,1,62,1,97,2,2,1,2,2,2,1,2,2,2,2,2,2,1,1,1,1,3,99,México,97,2
2021-01-30,1f5aa4,2,4,02,2,02,02,004,2,2021-01-11,2021-01-01,2021-01-14,2,1,36,1,97,2,2,2,2,2,2,2,2,2,2,2,2,1,1,1,1,2,3,99,México,97,2
2021-01-30,3ac0b5,2,4,02,2,14,02,004,2,2021-01-12,2021-01-05,2021-01-14,2,1,79,1,97,2,2,2,2,2,2,2,2,2,2,2,2,2,1,2,1,2,7,99,México,97,2
2021-01-30,2ea9cb,2,4,02,2,21,02,004,2,2021-01-12,2020-12-29,2021-01-14,2,1,44,1,97,2,2,2,2,2,2,2,2,2,2,2,2,2,1,1,1,2,3,99,México,97,2
2021-01-30,3fdc5a,2,4,02,2,10,02,004,2,2021-01-14,2020-12-31,2021-01-14,2,1,72,1,97,2,2,1,2,2,2,1,2,2,2,2,2,2,1,1,2,97,3,99,México,97,2
