2021-01-30,2728ac,2,4,02,1,02,02,004,2,2021-01-01,2020-12-25,2021-01-16,1,1,49,1,2,2,2,2,2,2,2,2,2,2,2,2,2,2,1,1,2,97,3,99,México,97,2
2021-01-30,1f8a50,2,4,02,1,16,02,004,2,2021-01-02,2020-12-26,2021-01-16,2,1,74,1,2,2,2,2,2,2,2,2,2,2,2,2,2,2,1,1,2,97,3,99,México,97,2
2021-01-30,21eaf7,2,4,02,1,20,02,004,2,2021-01-03,2020-12-25,2021-01-16,2,1,62,1,2,2,2,2,2,2,2,2,2,2,2,2,2,2,2,97,1,1,3,99,México,97,2
2021-01-30,337ef5,1,12,02,1,12,02,004,2,2021-01-06,2020-12-31,2021-01-16,2,1,63,1,2,99,99,2,2,2,2,2,2,2,2,2,2,2,1,1,2,97,3,99,México,97,2
2021-01-30,25cd07,2,4,02,2,22,02,004,2,2021-01-08,2020-12-25,2021-01-16,2,1,52,1,97,2,2,2,2,2,2,2,2,2,2,2,2,2,1,1,1,2,3,99,México,97,2
2021-01-30,27f1af,1,4,02,1,25,02,004,2,2021-01-10,2021-01-03,2021-01-16,2,2,70,1,2,2,2,2,2,2,2,1,2,2,2,2,2,2,1,1,1,2,3,99,México,97,2
2021-01-30,3e4b8e,1,12,02,1,02,02,004,2,2021-01-04,2020-12-31,2021-01-16,2,1,56,1,2,99,99,1,2,2,2,1,2,2,2,2,2,2,1,1,2,97,3,99,México,97,2
2021-01-30,44b802,2,4,02,1,02,02,004,2,2021-01-13,2021-01-06,2021-01-16,2,1,62,1,2,2,2,1,2,2,2,2,2,2,1,2,2,2,2,97,1,1,3,99,México,97,2
2021-01-30,2c5be9,1,12,02,1,09,02,004,2,2021-01-01,2020-12-24,2021-01-16,2,1,64,1,2,99,99,1,2,2,2,2,2,2,2,2,1,2,1,1,2,97,3,99,México,97,2
2021-01-30,20ea99,2,4,02,2,25,02,004,2,2021-01-13,2020-12-31,2021-01-16,2,1,82,1,97,2,2,1,1,2,2,1,2,2,2,1,2,2,1,2,1,2,7,99,México,97,2
2021-01-30,2ab83e,2,4,02,1,14,02,004,2,2021-01-14,2021-01-11,2021-01-16,2,1,96,1,2,2,2,2,2,2,2,2,2,2,2,2,2,2,2,97,1,1,3,99,México,97,2
2021-01-30,22b77e,1,4,02,1,14,02,004,2,2021-01-14,2021-01-14,2021-01-16,2,2,74,1,2,2,2,1,2,2,2,2,2,2,2,2,1,2,1,1,1,2,3,99,México,97,2
2021-01-30,2fc7e6,2,4,02,1,02,02,004,2,2021-01-14,2020-12-24,2021-01-16,2,1,78,1,2,2,2,2,2,2,2,1,2,2,1,2,2,2,2,97,1,1,3,99,México,97,2
2021-01-30,387e0c,1,12,02,1,02,02,004,2,2021-01-14,2021-01-07,2021-01-16,1,1,68,1,2,99,99,1,98,98,98,1,98,98,98,1,98,99,1,1,2,97,3,99,México,97,2
2021-01-30,4595b7,2,4,02,2,25,02,004,2,2021-01-15,2021-01-15,2021-01-16,2,2,60,1,97,2,2,1,2,2,2,2,2,2,2,2,2,1,1,2,1,1,7,99,México,97,2
2021-01-30,3d6cdd,1,12,02,2,08,02,004,2,2021-01-14,2021-01-04,2021-01-16,2,1,65,1,97,99,99,2,2,2,2,1,2,2,2,2,2,2,1,1,2,97,3,99,México,97,2
2021-01-30,1f5257,2,4,02,2,25,02,004,2,2021-01-15,2021-01-12,2021-01-16,2,1,45,1,97,2,2,2,2,2,2,1,2,2,1,2,2,2,2,97,1,1,3,99,México,97,2
2021-01-30,225182,2,4,02,1,02,02,004,2,2021-01-16,2021-01-09,2021-01-16,2,1,47,1,2,2,2,1,2,2,2,1,2,2,1,2,2,2,1,1,2,97,3,99,México,97,2
2021-01-30,463c8c,2,4,02,1,25,02,004,2,2021-01-16,2021-01-02,2021-01-16,2,1,56,1,2,2,2,1,2,2,2,1,2,2,2,2,2,2,1,1,2,97,3,99,México,97,2
2021-01-30,24cdb9,2,4,02,2,09,02,004,2,2021-01-16,2021-01-02,2021-01-16,2,1,59,1,97,2,2,1,2,2,2,1,2,2,2,2,2,2,1,2,1,2,7,99,México,97,2
2021-01-30,4c239e,1,12,02,2,07,02,004,2,2021-01-12,2021-01-02,2021-01-16,2,1,49,1,97,99,99,1,2,2,2,1,2,2,2,2,2,2,1,1,2,97,3,99,México,97,2
