2021-01-30,2412d7,2,9,02,2,02,02,004,2,2020-11-08,2020-11-01,2020-12-10,2,1,78,1,97,2,2,2,1,2,2,1,1,1,2,2,2,2,1,1,2,97,3,99,México,97,2
2021-01-30,4006c2,1,12,02,1,02,02,004,2,2020-11-20,2020-11-14,2020-12-10,2,1,61,1,2,99,99,1,2,2,2,1,2,2,2,2,1,2,1,1,2,97,3,99,México,97,2
2021-01-30,3430e8,2,4,02,1,21,02,004,2,2020-11-29,2020-11-24,2020-12-10,1,1,39,1,2,2,2,2,2,2,2,2,2,2,2,2,2,2,1,1,2,97,3,99,México,97,2
2021-01-30,3f44a3,1,12,02,2,14,02,004,2,2020-11-30,2020-11-23,2020-12-10,2,1,40,1,97,99,99,2,2,2,2,2,2,2,2,2,2,2,1,1,2,97,3,99,México,97,2
2021-01-30,36acae,2,4,02,1,02,02,004,2,2020-12-02,2020-11-25,2020-12-10,1,1,79,1,2,2,2,2,2,2,2,1,2,2,1,2,2,1,1,1,2,97,3,99,México,97,2
2021-01-30,2e0374,1,12,02,2,25,02,004,2,2020-12-02,2020-11-30,2020-12-10,2,1,76,1,97,99,99,1,2,2,2,1,2,2,2,2,2,99,1,1,2,97,3,99,México,97,2
2021-01-30,28b888,2,4,02,1,18,02,004,2,2020-12-04,2020-11-27,2020-12-10,2,2,70,1,2,2,2,2,2,2,2,2,2,2,2,2,2,2,1,1,2,97,3,99,México,97,2
2021-01-30,384856,2,4,02,1,02,02,004,2,2020-12-07,2020-12-05,2020-12-10,2,1,53,1,2,2,2,1,2,2,2,1,2,2,2,2,2,2,1,1,2,97,3,99,México,97,2
2021-01-30,454289,2,4,02,2,09,02,004,2,2020-12-08,2020-11-17,2020-12-10,2,1,61,1,97,2,2,2,2,2,2,2,2,2,2,2,2,2,1,4,2,97,6,99,México,97,2
2021-01-30,34b7cf,2,4,02,2,25,02,004,2,2020-12-08,2020-12-03,2020-12-10,2,1,40,1,97,2,2,2,2,2,2,2,2,2,2,2,1,2,1,1,2,97,3,99,México,97,2
2021-01-30,274795,2,4,02,2,02,02,004,2,2020-12-08,2020-12-01,2020-12-10,2,1,41,1,97,2,2,1,2,2,2,1,2,2,2,1,2,2,1,1,2,97,3,99,México,97,2
2021-01-30,46015d,2,4,02,1,26,02,004,2,2020-12-08,2020-12-06,2020-12-10,2,2,77,1,2,2,2,1,2,2,2,1,2,2,2,2,1,2,1,1,2,97,3,99,México,97,2
2021-01-30,21816e,2,4,02,2,02,02,004,2,2020-12-10,2020-12-03,2020-12-10,2,1,46,1,97,2,2,2,2,2,2,2,2,2,1,2,2,2,1,1,2,97,3,99,México,97,2
2021-01-30,3f3846,1,12,02,2,09,02,004,2,2020-11-28,2020-11-21,2020-12-10,1,1,60,1,97,99,99,1,2,2,2,1,2,2,2,2,2,2,1,1,2,97,3,99,México,97,2
2021-01-30,2ffb4b,2,9,02,2,02,02,004,2,2020-12-08,2020-12-01,2020-12-10,2,1,65,1,97,2,2,1,2,2,2,1,2,1,2,1,2,1,1,1,2,97,3,99,México,97,1
