2021-01-30,1a241d,2,12,24,2,24,02,004,1,2020-08-05,2020-08-02,2020-09-01,97,1,68,1,97,2,2,1,2,2,2,2,2,2,2,2,2,2,1,1,2,97,3,99,México,97,97
2021-01-30,196005,2,4,02,2,02,02,004,2,2020-08-07,2020-07-29,2020-09-01,1,2,38,1,97,2,2,2,2,2,2,2,2,2,2,2,2,2,1,1,2,97,3,99,México,97,2
2021-01-30,1412d1,2,4,02,1,14,02,004,2,2020-08-21,2020-08-07,2020-09-01,2,1,80,1,2,2,2,1,2,2,2,1,2,2,1,1,2,2,1,1,2,97,3,99,México,97,2
2021-01-30,1d2b19,2,4,02,1,05,02,004,2,2020-08-25,2020-08-18,2020-09-01,2,1,66,1,2,2,2,2,2,2,2,1,2,2,1,2,2,2,1,1,2,97,3,99,México,97,2
2021-01-30,18b635,2,4,02,2,25,02,004,2,2020-08-28,2020-08-28,2020-09-01,2,1,76,1,97,2,2,2,2,2,2,2,1,2,2,2,1,1,1,1,2,97,3,99,México,97,2
2021-01-30,05c543,2,4,02,2,02,02,004,2,2020-08-29,2020-08-28,2020-09-01,2,1,64,1,97,2,2,1,2,2,2,1,1,2,2,2,1,2,1,1,2,97,3,99,México,97,2
