2021-01-30,1b0426,1,12,02,2,15,02,004,2,2020-04-13,2020-04-09,2020-04-26,2,2,49,1,97,2,2,1,2,2,2,2,2,2,2,2,1,99,1,1,2,97,3,99,México,97,2
2021-01-30,072db7,1,12,02,2,20,02,004,2,2020-04-13,2020-04-09,2020-04-26,2,1,42,1,97,2,2,2,2,2,2,2,2,2,2,2,2,2,1,1,2,97,3,99,México,97,2
2021-01-30,1a4093,1,12,02,2,18,02,004,2,2020-04-12,2020-04-11,2020-04-26,2,2,73,1,97,2,2,2,2,2,2,1,2,2,2,2,2,2,1,1,2,97,3,99,México,97,2
2021-01-30,18a06f,2,4,02,2,02,02,004,2,2020-04-13,2020-04-09,2020-04-26,2,2,36,1,97,2,2,2,2,2,2,2,2,2,2,2,2,99,1,2,2,97,7,99,México,97,2
2021-01-30,1150b3,1,12,02,2,02,02,004,2,2020-04-14,2020-04-08,2020-04-26,1,1,61,1,97,2,2,1,2,2,2,2,1,2,2,2,2,99,1,4,2,97,5,99,México,97,2
2021-01-30,0480ca,1,12,02,2,02,02,004,2,2020-04-15,2020-04-09,2020-04-26,2,1,69,1,97,2,2,1,2,2,2,2,2,2,2,2,2,2,1,1,2,97,3,99,México,97,2
2021-01-30,0ac74a,1,4,02,1,02,02,004,2,2020-04-16,2020-04-09,2020-04-26,1,1,65,1,2,2,2,1,2,2,2,1,2,2,2,2,2,99,1,1,2,97,3,99,México,97,2
2021-01-30,1d3dd1,1,12,02,2,07,02,004,2,2020-04-19,2020-04-16,2020-04-26,2,1,44,1,97,2,2,1,2,2,2,2,2,2,2,2,2,99,1,1,2,97,3,99,México,97,2
2021-01-30,15255f,1,12,02,2,14,02,004,2,2020-04-20,2020-04-17,2020-04-26,2,1,66,1,97,2,2,2,2,1,2,1,2,2,2,2,1,2,1,1,2,97,3,99,México,97,2
2021-01-30,1bfab3,2,4,02,2,14,02,004,2,2020-04-24,2020-04-13,2020-04-26,2,1,44,1,97,2,2,2,2,2,2,2,2,2,2,2,2,99,1,2,2,97,7,99,México,97,2
2021-01-30,1819ff,1,4,02,2,02,02,004,2,2020-04-09,2020-04-09,2020-04-26,2,2,74,1,97,2,2,2,2,2,2,1,2,2,1,2,1,1,2,97,2,97,6,99,México,97,2
2021-01-30,0f7ad3,1,12,02,2,20,02,004,2,2020-04-23,2020-04-16,2020-04-26,2,1,34,1,97,2,2,2,2,2,2,2,2,2,2,2,1,2,1,1,2,97,3,99,México,97,2
2021-01-30,01cdd7,2,4,02,2,02,02,004,2,2020-04-23,2020-04-19,2020-04-26,2,1,75,1,97,2,2,1,2,2,2,1,1,2,2,2,2,99,1,1,2,97,3,99,México,97,2
2021-01-30,1a0e5d,1,4,02,1,02,02,004,2,2020-04-21,2020-04-21,2020-04-26,2,1,15,1,2,2,2,1,2,2,2,2,2,2,2,2,2,99,2,97,2,97,6,99,México,97,2
2021-01-30,0afc12,2,4,02,2,02,02,004,2,2020-04-23,2020-04-13,2020-04-26,2,2,40,1,97,2,2,2,2,2,2,2,1,2,2,2,2,99,1,4,2,97,5,99,México,97,2
2021-01-30,0814c5,1,4,02,2,27,02,004,2,2020-04-24,2020-04-10,2020-04-26,2,1,50,1,97,2,2,2,2,2,2,2,1,2,2,2,2,2,2,97,2,97,6,99,México,97,2
2021-01-30,01f2bf,1,12,18,2,18,02,004,2,2020-04-26,2020-04-26,2020-04-26,2,1,75,1,97,2,2,2,2,2,2,2,2,2,2,2,2,2,1,1,2,97,3,99,México,97,2
2021-01-30,101d0e,2,4,02,2,16,02,004,2,2020-04-26,2020-04-26,2020-04-26,2,2,58,1,97,2,2,1,2,2,2,1,2,2,2,1,2,99,2,97,2,97,6,99,México,97,2
2021-01-30,0792c3,2,4,02,1,14,02,004,2,2020-04-24,2020-04-17,2020-04-26,2,1,72,1,2,2,2,1,2,2,2,1,2,2,2,2,2,99,2,97,2,97,6,99,México,97,2
2021-01-30,0d78f6,1,4,02,1,02,02,004,2,2020-04-22,2020-04-22,2020-04-26,2,1,58,1,2,2,2,1,2,2,2,1,2,2,2,2,2,99,1,1,2,97,3,99,México,97,2
2021-01-30,115c5f,2,12,02,1,02,02,004,2,2020-04-23,2020-04-19,2020-04-26,99,2,51,1,2,2,2,2,2,2,2,1,2,2,2,2,2,2,1,1,2,97,3,99,México,97,99
2021-01-30,0b6b7a,2,4,02,1,10,02,004,2,2020-04-26,2020-04-18,2020-04-26,2,2,75,1,2,2,2,1,2,2,2,1,2,2,2,2,2,99,2,97,2,97,6,99,México,97,2
2021-01-30,0ddc13,2,4,02,1,16,02,004,2,2020-04-20,2020-04-20,2020-04-26,2,2,46,1,2,2,2,2,2,2,2,1,2,2,2,2,2,99,2,97,2,97,6,99,México,97,2
2021-01-30,140e37,2,4,02,1,14,02,004,2,2020-04-25,2020-04-18,2020-04-26,2,2,70,1,2,2,2,2,2,2,2,1,1,2,2,2,2,99,2,97,2,97,6,99,México,97,2
2021-01-30,1930b0,2,4,02,2,08,02,004,2,2020-04-25,2020-04-18,2020-04-26,2,1,64,1,97,2,2,2,2,2,2,2,1,1,2,2,2,99,2,97,2,97,6,99,México,97,2
