2021-01-30,0c1db3,1,12,02,2,02,02,004,2,2020-05-24,2020-05-18,2020-06-21,2,1,78,1,97,2,2,1,2,2,2,1,2,2,2,2,1,2,1,1,2,97,3,99,México,97,2
2021-01-30,1d278c,2,4,02,2,25,02,004,2,2020-06-14,2020-06-09,2020-06-21,2,1,63,1,97,2,2,2,2,2,2,1,2,2,2,2,2,99,1,1,2,97,3,99,México,97,2
2021-01-30,1cfc15,2,4,02,2,02,02,004,2,2020-06-15,2020-06-08,2020-06-21,99,2,32,1,97,2,2,2,2,2,2,2,2,2,1,2,2,99,2,97,2,97,6,99,México,97,99
2021-01-30,0f89ad,1,12,02,2,02,02,004,2,2020-06-16,2020-06-09,2020-06-21,2,1,59,1,97,2,2,2,2,2,2,2,2,2,2,2,1,2,1,1,2,97,3,99,México,97,2
2021-01-30,06f5d9,2,4,02,2,04,02,004,2,2020-06-18,2020-06-16,2020-06-21,2,2,56,1,97,2,2,1,2,2,2,2,2,2,2,2,2,99,1,2,2,97,7,99,México,97,2
