2021-01-30,244fd0,2,4,02,2,09,02,004,2,2020-09-25,2020-09-17,2020-10-02,2,1,42,1,97,2,2,1,2,2,2,1,2,2,1,2,2,1,1,1,2,97,3,99,México,97,2
2021-01-30,238676,2,4,02,2,11,02,004,2,2020-09-22,2020-09-08,2020-10-02,2,1,88,1,97,2,2,1,2,2,2,1,1,2,2,2,2,2,1,1,2,97,3,99,México,97,2
2021-01-30,3b7947,2,4,02,1,25,02,004,2,2020-09-26,2020-09-21,2020-10-02,2,1,54,1,2,2,2,2,2,2,2,2,2,2,2,2,2,2,1,4,2,97,5,99,México,97,2
2021-01-30,274655,2,4,02,2,02,02,004,2,2020-09-28,2020-09-14,2020-10-02,1,1,63,1,97,2,2,2,2,2,2,1,2,2,2,2,2,2,1,1,2,97,3,99,México,97,2
2021-01-30,45051e,1,4,02,1,18,02,004,2,2020-09-30,2020-09-30,2020-10-02,2,2,71,1,2,2,2,2,2,2,2,1,2,2,2,1,2,2,2,97,2,97,6,99,México,97,2
