2021-01-30,1ed30c,2,4,02,2,12,02,004,2,2020-11-20,2020-11-13,2020-12-13,1,1,49,1,97,2,2,1,2,2,2,2,2,2,1,2,2,2,1,1,2,97,3,99,México,97,2
2021-01-30,1f50b1,2,4,02,2,16,02,004,2,2020-11-26,2020-11-24,2020-12-13,2,1,77,1,97,2,2,1,1,1,2,1,1,2,1,2,1,2,1,1,2,97,3,99,México,97,2
2021-01-30,250fcb,1,12,02,2,02,02,004,2,2020-11-26,2020-11-18,2020-12-13,2,2,52,1,97,99,99,2,2,2,2,2,2,2,2,2,2,2,1,1,2,97,3,99,México,97,2
2021-01-30,39d897,2,4,02,2,07,02,004,2,2020-11-28,2020-11-18,2020-12-13,2,1,71,1,97,2,2,1,2,2,2,2,2,2,2,2,2,2,1,1,2,97,3,99,México,97,2
2021-01-30,2931e6,2,4,02,2,25,02,004,2,2020-12-01,2020-11-24,2020-12-13,2,1,71,1,97,2,2,1,2,2,2,1,2,2,2,2,2,2,1,1,2,97,3,99,México,97,2
2021-01-30,405e57,1,12,02,1,09,02,004,2,2020-11-29,2020-11-24,2020-12-13,2,1,66,1,2,99,99,2,2,2,2,2,2,2,2,2,2,2,1,1,2,97,3,99,México,97,2
2021-01-30,44a2ad,1,12,02,2,24,02,004,2,2020-11-29,2020-11-19,2020-12-13,2,1,87,1,97,99,99,2,2,1,2,1,2,2,2,2,2,2,1,1,2,97,3,99,México,97,2
2021-01-30,4183ef,2,4,02,2,02,02,004,2,2020-12-03,2020-11-29,2020-12-13,2,1,47,1,97,2,2,2,2,2,2,1,2,2,1,2,2,2,1,1,2,97,3,99,México,97,2
2021-01-30,3e34a1,2,4,02,2,02,02,004,2,2020-12-05,2020-12-03,2020-12-13,2,1,46,1,97,2,2,2,2,2,2,2,2,2,1,2,2,2,1,1,2,97,3,99,México,97,2
2021-01-30,256e4e,1,4,02,1,16,02,004,2,2020-12-07,2020-12-03,2020-12-13,2,1,77,1,2,2,2,1,2,2,2,1,2,2,2,2,2,2,1,1,2,97,3,99,México,97,2
2021-01-30,3ac4b9,1,4,02,1,16,02,004,2,2020-12-09,2020-12-06,2020-12-13,2,2,45,1,2,2,2,2,2,2,2,1,2,2,1,2,2,2,1,1,2,97,3,99,México,97,2
2021-01-30,2da345,2,4,02,2,19,02,004,2,2020-12-09,2020-11-20,2020-12-13,2,1,68,1,97,2,2,2,2,2,2,2,2,2,2,2,2,2,1,1,2,97,3,99,México,97,2
2021-01-30,3fd157,2,4,02,2,02,02,004,2,2020-12-10,2020-12-04,2020-12-13,2,1,82,1,97,2,2,2,2,2,2,2,2,2,2,2,2,2,1,1,2,97,3,99,México,97,2
2021-01-30,2a0ca8,2,4,02,1,10,02,004,2,2020-12-10,2020-12-10,2020-12-13,2,1,46,1,2,2,2,2,2,2,2,2,2,2,2,2,2,2,1,1,2,97,3,99,México,97,2
2021-01-30,28c93d,2,4,02,2,07,02,004,2,2020-12-11,2020-12-08,2020-12-13,2,2,60,1,97,2,2,2,2,2,2,2,2,2,2,2,2,2,1,1,2,97,3,99,México,97,2
2021-01-30,332bcf,1,12,02,2,05,02,004,2,2020-12-02,2020-11-25,2020-12-13,2,1,77,1,97,99,99,2,2,2,2,1,2,2,2,2,2,2,1,1,2,97,3,99,México,97,2
2021-01-30,2933cd,1,4,02,1,14,02,004,2,2020-12-12,2020-12-04,2020-12-13,2,2,78,1,2,2,2,2,2,2,2,1,2,2,2,2,2,1,1,1,2,97,3,99,México,97,2
2021-01-30,3c5b41,2,4,02,1,08,02,004,2,2020-12-12,2020-12-12,2020-12-13,2,1,70,1,2,2,2,1,2,2,2,1,2,2,2,2,2,2,1,1,2,97,3,99,México,97,2
2021-01-30,3d9678,2,4,02,2,09,02,004,2,2020-12-05,2020-11-21,2020-12-13,2,1,63,1,97,2,2,2,2,2,2,1,2,2,2,2,2,2,1,1,2,97,3,99,México,97,2
2021-01-30,2fe53d,2,4,02,2,14,02,004,2,2020-12-12,2020-12-08,2020-12-13,2,1,76,1,97,2,2,1,2,2,2,1,2,2,2,2,2,1,1,1,2,97,3,99,México,97,2
2021-01-30,40e0a1,2,4,02,2,20,02,004,2,2020-12-13,2020-11-29,2020-12-13,2,1,64,1,97,2,2,2,2,2,2,2,2,2,2,2,2,2,1,1,2,97,3,99,México,97,2
2021-01-30,3325e2,2,4,02,2,14,02,004,2,2020-12-13,2020-11-29,2020-12-13,2,1,50,1,97,2,2,1,2,2,2,1,2,2,2,2,2,2,1,2,2,97,7,99,México,97,2
2021-01-30,294308,2,4,02,2,10,02,004,2,2020-12-13,2020-12-08,2020-12-13,2,1,78,1,97,2,2,1,2,2,2,2,1,2,2,2,2,2,1,4,2,97,5,99,México,97,2
