2021-01-30,1ab086,2,4,02,2,09,02,004,2,2020-05-29,2020-05-19,2020-06-14,2,2,59,1,97,2,2,2,2,2,2,1,2,2,2,2,2,99,1,1,2,97,3,99,México,97,2
2021-01-30,0680ff,2,4,02,2,18,02,004,2,2020-06-04,2020-05-30,2020-06-14,1,1,76,1,97,2,2,2,2,2,2,1,1,2,1,2,2,99,1,1,2,97,3,99,México,97,2
2021-01-30,13f842,1,4,02,1,05,02,004,2,2020-06-01,2020-06-01,2020-06-14,1,2,51,1,2,2,2,2,2,2,2,1,2,2,2,2,2,99,1,1,2,97,3,99,México,97,2
2021-01-30,14c4f4,1,4,02,1,02,02,004,2,2020-06-06,2020-06-04,2020-06-14,1,1,74,1,2,2,2,1,2,2,2,1,2,1,1,2,2,99,1,1,2,97,3,99,México,97,2
2021-01-30,11408a,2,4,02,1,31,02,004,2,2020-06-10,2020-06-04,2020-06-14,2,1,73,1,2,2,2,1,2,2,2,1,2,2,2,2,2,99,1,1,2,97,3,99,México,97,2
2021-01-30,0d0544,1,4,02,2,25,02,004,2,2020-06-13,2020-06-06,2020-06-14,1,1,52,1,97,2,2,2,2,2,2,2,2,1,2,2,2,2,2,97,2,97,6,99,México,97,2
2021-01-30,0ff6b7,2,4,02,1,25,02,004,2,2020-06-14,2020-06-07,2020-06-14,2,1,67,1,2,2,2,1,2,2,2,1,1,2,2,2,2,99,1,1,2,97,3,99,México,97,2
