2021-01-30,09e213,1,12,02,2,02,02,004,2,2020-07-08,2020-07-05,2020-08-12,2,1,49,1,97,99,99,98,98,98,98,98,98,98,98,98,98,99,1,1,2,97,3,99,México,97,2
2021-01-30,02f06c,2,4,02,2,01,02,004,2,2020-07-19,2020-07-07,2020-08-12,2,1,64,1,97,2,2,1,2,2,2,2,2,2,2,2,2,99,1,2,2,97,7,99,México,97,2
2021-01-30,008ce0,2,4,02,2,08,02,004,2,2020-08-10,2020-08-02,2020-08-12,2,2,38,1,97,2,2,2,2,2,2,2,1,2,2,2,2,99,1,1,2,97,3,99,México,97,2
2021-01-30,17dd3a,2,4,02,2,30,02,004,2,2020-08-11,2020-07-28,2020-08-12,99,2,75,1,97,2,2,1,2,2,2,1,2,2,2,2,2,2,1,1,2,97,3,99,México,97,99
