2021-01-30,17b397,2,4,02,2,12,02,004,2,2020-05-27,2020-05-25,2020-06-24,2,1,59,1,97,2,2,2,2,1,2,1,2,1,2,2,2,99,1,2,2,97,7,99,México,97,2
2021-01-30,00d26a,1,4,02,1,25,02,004,2,2020-05-20,2020-05-20,2020-06-24,1,1,79,1,2,2,2,2,2,2,2,1,2,2,2,2,1,99,1,1,2,97,3,99,México,97,2
2021-01-30,1d3f91,2,4,02,2,02,02,004,2,2020-06-06,2020-05-30,2020-06-24,2,1,68,1,97,2,2,2,2,2,2,1,2,2,2,2,2,99,1,1,2,97,3,99,México,97,2
2021-01-30,1627b3,2,4,02,2,24,02,004,2,2020-06-12,2020-06-05,2020-06-24,2,1,68,1,97,2,2,2,2,2,2,1,2,2,2,2,2,99,1,1,2,97,3,99,México,97,2
2021-01-30,012cbf,1,12,02,2,20,02,004,2,2020-06-14,2020-06-07,2020-06-24,1,1,53,1,97,2,2,1,2,2,2,2,2,2,2,2,1,2,1,2,2,97,7,99,México,97,2
2021-01-30,10c576,1,12,02,2,02,02,004,2,2020-06-15,2020-06-08,2020-06-24,1,1,31,1,97,99,99,2,2,2,2,2,2,2,2,2,2,2,1,2,2,97,7,99,México,97,2
2021-01-30,19433c,1,12,02,1,02,02,004,2,2020-06-17,2020-06-15,2020-06-24,2,1,80,1,2,2,2,98,98,98,98,98,98,98,98,98,98,2,1,2,2,97,7,99,México,97,2
2021-01-30,104d61,1,12,02,2,02,02,004,2,2020-06-20,2020-06-17,2020-06-24,2,1,38,1,97,2,2,2,2,2,2,2,2,2,2,2,2,2,1,2,2,97,7,99,México,97,2
2021-01-30,1819e2,2,4,02,2,14,02,004,2,2020-06-22,2020-06-15,2020-06-24,2,1,62,1,97,2,2,1,2,2,2,1,2,2,2,2,2,99,1,1,2,97,3,99,México,97,2
