2021-01-30,339aaf,2,4,02,2,26,02,004,2,2020-11-26,2020-11-18,2020-12-14,2,1,49,1,97,2,2,2,2,2,2,2,2,2,2,2,2,2,1,1,2,97,3,99,México,97,2
2021-01-30,30b05a,2,4,02,1,14,02,004,2,2020-11-28,2020-11-21,2020-12-14,1,1,66,1,2,2,2,2,2,2,2,2,1,2,1,2,2,2,1,1,2,97,3,99,México,97,1
2021-01-30,41d433,2,9,02,2,16,02,004,2,2020-11-27,2020-11-18,2020-12-14,1,1,67,1,97,2,2,1,2,2,2,1,2,2,2,2,2,2,1,1,2,97,3,99,México,97,1
2021-01-30,3f1ed5,2,4,02,1,18,02,004,2,2020-12-01,2020-11-16,2020-12-14,1,1,40,1,2,2,2,1,2,2,2,1,2,2,1,2,2,1,1,1,2,97,3,99,México,97,2
2021-01-30,32d9e0,2,4,02,1,07,02,004,2,2020-12-01,2020-11-24,2020-12-14,2,1,70,1,2,2,2,2,2,2,2,2,2,2,1,2,2,2,1,1,2,97,3,99,México,97,2
2021-01-30,1f65c0,1,12,02,2,16,02,004,2,2020-12-01,2020-11-29,2020-12-14,2,1,66,1,97,2,2,2,1,2,2,1,2,1,2,2,1,2,1,1,2,97,3,99,México,97,2
2021-01-30,3a76d2,2,4,02,2,16,02,004,2,2020-12-05,2020-11-27,2020-12-14,2,1,47,1,97,2,2,2,2,2,2,2,2,2,1,2,2,2,1,1,2,97,3,99,México,97,2
2021-01-30,2e611d,2,4,02,2,02,02,004,2,2020-12-05,2020-12-01,2020-12-14,2,1,58,1,97,2,2,2,2,2,2,2,2,2,2,2,2,2,1,1,2,97,3,99,México,97,2
2021-01-30,312f38,2,4,02,2,05,02,004,2,2020-12-06,2020-11-27,2020-12-14,2,1,56,1,97,2,2,1,2,2,2,1,2,2,1,2,2,2,1,1,2,97,3,99,México,97,2
2021-01-30,29be13,2,4,02,2,09,02,004,2,2020-12-08,2020-12-02,2020-12-14,2,1,64,1,97,2,2,1,2,2,2,1,2,2,2,2,2,2,1,1,2,97,3,99,México,97,2
2021-01-30,1f2639,2,4,02,2,18,02,004,2,2020-12-07,2020-11-27,2020-12-14,2,1,31,1,97,2,2,2,2,2,2,2,2,2,2,2,1,2,1,1,2,97,3,99,México,97,2
2021-01-30,4286a9,2,4,02,2,26,02,004,2,2020-12-09,2020-12-03,2020-12-14,2,1,44,1,97,2,2,2,2,2,2,1,2,2,2,2,2,1,1,1,2,97,3,99,México,97,2
2021-01-30,31d859,1,4,02,2,02,02,004,2,2020-12-08,2020-12-08,2020-12-14,2,2,25,1,97,2,2,2,2,2,2,2,1,2,2,2,2,2,1,2,2,97,7,99,México,97,2
2021-01-30,3e4006,1,4,02,2,02,02,004,2,2020-12-05,2020-12-05,2020-12-14,1,1,51,1,97,2,2,1,2,2,2,1,2,2,2,2,2,2,1,1,2,97,3,99,México,97,1
2021-01-30,3ed978,1,4,02,2,15,02,004,2,2020-12-13,2020-12-09,2020-12-14,2,1,67,1,97,2,2,1,2,2,2,1,2,2,2,1,2,2,1,2,2,97,7,99,México,97,2
2021-01-30,1ffeb2,1,4,02,2,29,02,004,2,2020-12-13,2020-11-30,2020-12-14,1,2,39,1,97,2,2,2,2,2,2,2,2,2,2,2,2,2,1,1,2,97,3,99,México,97,2
2021-01-30,3e2d79,2,4,02,1,25,02,004,2,2020-12-13,2020-12-06,2020-12-14,2,2,59,1,2,2,2,2,2,1,2,1,2,2,1,2,2,2,1,1,2,97,3,99,México,97,2
2021-01-30,223f3b,2,4,02,2,09,02,004,2,2020-12-14,2020-11-30,2020-12-14,2,1,70,1,97,2,2,2,2,2,2,2,2,2,2,2,1,1,1,1,2,97,3,99,México,97,2
2021-01-30,1ed168,1,12,02,2,02,02,004,2,2020-12-03,2020-12-01,2020-12-14,2,1,81,1,97,99,99,1,2,2,2,2,2,2,2,2,2,2,1,1,2,97,3,99,México,97,2
2021-01-30,388569,1,12,02,2,02,02,004,2,2020-12-02,2020-11-25,2020-12-14,2,1,53,1,97,99,99,1,2,2,2,2,1,1,2,2,2,2,1,2,2,97,7,99,México,97,2
2021-01-30,a4ad7b,2,9,02,2,02,02,004,2,2020-11-25,2020-11-15,2020-12-14,1,1,49,1,97,2,2,1,2,2,2,1,2,2,1,2,2,2,1,1,2,97,3,99,México,97,1
