2021-01-30,1974d6,2,4,02,2,16,02,004,2,2020-08-10,2020-08-02,2020-08-25,2,1,70,1,97,2,2,1,2,2,2,1,2,2,2,2,2,2,1,1,2,97,3,99,México,97,2
2021-01-30,0be92a,1,12,02,1,02,02,004,2,2020-08-14,2020-08-07,2020-08-25,2,1,73,1,2,2,2,1,2,2,2,2,2,2,1,2,2,2,1,1,2,97,3,99,México,97,2
2021-01-30,168f99,1,12,02,2,02,02,004,2,2020-08-14,2020-08-12,2020-08-25,1,1,26,1,97,2,2,2,2,2,2,2,2,2,1,2,2,1,1,2,2,97,7,99,México,97,1
