2021-01-30,18e39e,1,12,02,1,02,02,004,2,2020-08-21,2020-08-07,2020-09-07,2,1,66,1,2,2,2,2,2,2,2,2,2,2,2,2,2,1,1,1,2,97,3,99,México,97,2
2021-01-30,13b44c,1,12,02,1,12,02,004,2,2020-08-25,2020-08-21,2020-09-07,2,1,56,1,2,99,99,2,2,2,2,2,2,2,1,2,2,2,1,2,2,97,7,99,México,97,2
2021-01-30,1c1ce2,2,4,02,2,16,02,004,2,2020-08-29,2020-08-22,2020-09-07,2,1,72,1,97,2,2,1,2,2,2,1,2,2,2,2,2,2,1,1,2,97,3,99,México,97,2
2021-01-30,0b7489,1,12,02,1,12,02,004,2,2020-08-28,2020-08-21,2020-09-07,2,2,66,1,2,2,2,2,2,2,2,2,2,2,2,2,2,2,1,1,2,97,3,99,México,97,2
2021-01-30,194bf7,2,4,02,2,02,02,004,2,2020-08-27,2020-08-13,2020-09-07,2,1,28,1,97,2,2,2,2,2,2,2,2,2,1,2,2,1,1,1,2,97,3,99,México,97,2
2021-01-30,254dea,1,12,02,2,14,02,004,2,2020-09-01,2020-08-20,2020-09-07,1,1,77,1,97,99,99,2,2,2,1,2,2,2,2,2,1,2,1,1,2,97,3,99,México,97,2
2021-01-30,303044,1,12,02,1,02,02,004,2,2020-09-03,2020-08-20,2020-09-07,1,1,50,1,2,2,2,2,2,2,2,2,2,2,2,2,2,2,1,2,2,97,7,99,México,97,2
2021-01-30,40db58,2,4,02,2,09,02,004,2,2020-09-04,2020-09-04,2020-09-07,2,1,51,1,97,2,2,1,2,2,2,2,2,2,1,2,2,2,1,1,2,97,3,99,México,97,2
2021-01-30,3349d6,2,4,02,2,25,02,004,2,2020-09-05,2020-08-30,2020-09-07,2,1,42,1,97,2,2,2,2,2,2,2,2,2,1,2,2,2,1,1,2,97,3,99,México,97,2
2021-01-30,3c92e4,2,4,02,2,15,02,004,2,2020-09-07,2020-09-06,2020-09-07,2,1,67,1,97,2,2,1,2,2,2,1,1,2,1,2,2,1,1,1,2,97,3,99,México,97,2
2021-01-30,3d8f89,2,4,02,2,02,02,004,2,2020-08-15,2020-08-01,2020-09-07,2,1,59,1,97,2,2,1,2,2,2,1,2,2,2,2,2,2,1,4,2,97,6,99,México,97,2
2021-01-30,e5f399,2,9,02,1,14,02,004,2,2020-08-26,2020-08-15,2020-09-07,1,1,65,1,2,2,2,1,2,2,2,1,2,1,2,2,2,2,1,1,2,97,3,99,México,97,1
