2021-01-30,20f95d,1,12,02,1,02,02,004,2,2020-11-23,2020-11-16,2020-12-21,2,1,59,1,2,99,99,1,2,2,2,1,2,2,2,2,2,1,1,4,2,97,5,99,México,97,1
2021-01-30,46257a,2,4,02,1,25,02,004,2,2020-12-05,2020-11-21,2020-12-21,2,1,65,1,2,2,2,2,2,2,2,1,2,2,2,2,2,2,1,1,2,97,3,99,México,97,2
2021-01-30,323dbd,2,4,02,1,26,02,004,2,2020-12-05,2020-12-05,2020-12-21,2,1,81,1,2,2,2,2,2,2,2,2,2,2,2,2,2,2,1,1,2,97,3,99,México,97,2
2021-01-30,3704ed,1,4,02,1,20,02,004,2,2020-12-09,2020-12-09,2020-12-21,2,2,54,1,2,2,2,1,2,2,2,2,2,2,2,2,2,2,1,1,2,97,3,99,México,97,2
2021-01-30,38cdc7,2,4,02,1,32,02,004,2,2020-12-09,2020-12-04,2020-12-21,2,1,66,1,2,2,2,1,2,2,2,1,2,2,2,2,2,2,1,1,2,97,3,99,México,97,2
2021-01-30,416fbf,2,4,02,2,20,02,004,2,2020-12-10,2020-12-08,2020-12-21,1,1,63,1,97,2,2,1,2,2,2,1,2,2,2,2,2,2,1,1,2,97,3,99,México,97,2
2021-01-30,239503,1,4,02,1,02,02,004,2,2020-12-13,2020-12-05,2020-12-21,1,2,78,1,2,2,2,2,2,2,2,2,2,2,1,2,2,2,1,1,2,97,3,99,México,97,2
2021-01-30,3c9dba,1,4,02,1,02,02,004,2,2020-12-13,2020-12-12,2020-12-21,1,1,56,1,2,2,2,1,2,2,2,1,2,2,2,1,2,2,1,1,2,97,3,99,México,97,2
2021-01-30,461587,2,4,02,2,12,02,004,2,2020-12-13,2020-11-29,2020-12-21,2,1,59,1,97,2,2,2,2,2,2,1,2,2,2,2,2,2,1,1,2,97,3,99,México,97,2
2021-01-30,27d642,1,4,02,1,07,02,004,2,2020-12-13,2020-12-05,2020-12-21,1,1,78,1,2,2,2,2,2,2,2,2,2,2,2,2,2,2,1,4,2,97,6,99,México,97,2
2021-01-30,30722c,2,4,02,2,14,02,004,2,2020-12-18,2020-12-14,2020-12-21,2,1,57,1,97,2,2,2,2,2,2,2,2,2,2,2,2,2,1,4,2,97,5,99,México,97,2
2021-01-30,25276f,1,12,02,1,12,02,004,2,2020-12-16,2020-12-10,2020-12-21,2,1,80,1,2,2,2,1,2,2,2,1,2,2,2,2,2,2,1,1,2,97,3,99,México,97,2
2021-01-30,30299e,2,4,02,2,14,02,004,2,2020-12-16,2020-12-14,2020-12-21,2,1,73,1,97,2,2,1,2,2,2,1,2,2,1,2,1,2,1,1,2,97,3,99,México,97,2
2021-01-30,409082,1,4,02,1,10,02,004,2,2020-12-17,2020-12-17,2020-12-21,2,2,51,1,2,2,2,1,2,1,2,2,2,2,2,2,2,2,1,1,2,97,3,99,México,97,2
2021-01-30,33464a,1,12,02,1,15,02,004,2,2020-12-07,2020-11-30,2020-12-21,2,1,64,1,2,99,99,2,2,1,2,2,2,2,2,2,2,2,1,1,2,97,3,99,México,97,2
2021-01-30,253d2f,1,4,02,1,30,02,004,2,2020-12-18,2020-12-11,2020-12-21,2,2,61,1,2,2,2,1,2,1,2,1,2,2,2,1,2,2,1,1,2,97,3,99,México,97,2
2021-01-30,3fe013,2,4,02,2,02,02,004,2,2020-12-18,2020-12-14,2020-12-21,2,1,55,1,97,2,2,1,2,2,2,1,2,2,1,2,2,1,1,4,2,97,5,99,México,97,2
2021-01-30,45f918,2,4,02,1,32,02,004,2,2020-12-20,2020-12-19,2020-12-21,2,1,78,1,2,2,2,1,2,2,2,1,2,2,2,2,2,2,1,2,2,97,7,99,México,97,2
2021-01-30,1f1077,2,4,02,2,18,02,004,2,2020-12-20,2020-12-06,2020-12-21,2,1,74,1,97,2,2,2,2,2,2,2,2,2,2,2,2,2,1,1,2,97,3,99,México,97,2
2021-01-30,36e6da,2,4,02,2,02,02,004,2,2020-12-19,2020-12-05,2020-12-21,2,2,55,1,97,2,2,2,2,2,2,1,2,2,1,2,2,2,1,1,2,97,3,99,México,97,2
2021-01-30,29f7dc,1,12,02,2,02,02,004,2,2020-12-09,2020-12-01,2020-12-21,2,1,26,1,97,99,99,2,2,2,2,2,2,2,2,2,2,2,1,1,2,97,3,99,México,97,2
2021-01-30,39a7ac,2,4,02,2,02,02,004,2,2020-12-20,2020-12-13,2020-12-21,2,1,57,1,97,2,2,2,2,2,2,2,2,2,2,2,2,2,1,1,1,2,3,99,México,97,2
2021-01-30,3bb8a5,2,4,02,2,07,02,004,2,2020-12-16,2020-12-16,2020-12-21,1,1,49,1,97,2,2,2,2,2,2,2,2,1,1,2,2,2,1,2,2,97,7,99,México,97,2
2021-01-30,40e7fc,2,4,02,2,16,02,004,2,2020-12-20,2020-12-18,2020-12-21,2,1,96,1,97,2,2,2,2,2,2,1,2,2,2,1,2,2,1,1,2,97,3,99,México,97,2
2021-01-30,3cb355,2,4,02,1,18,02,004,2,2020-12-20,2020-12-13,2020-12-21,2,1,92,1,2,2,2,2,2,2,2,1,2,2,2,2,2,2,1,1,2,97,3,99,México,97,2
2021-01-30,3ec138,2,4,02,1,02,02,004,2,2020-12-21,2020-12-14,2020-12-21,2,1,62,1,2,2,2,1,2,2,2,1,2,2,2,2,2,2,1,1,2,97,3,99,México,97,2
