2021-01-30,3a1992,2,4,02,2,30,02,004,2,2020-12-01,2020-11-23,2020-12-22,2,1,44,1,97,2,2,2,2,2,2,2,2,2,2,2,2,2,1,1,2,97,3,99,México,97,2
2021-01-30,1f5815,2,4,02,2,06,02,004,2,2020-12-03,2020-11-24,2020-12-22,2,1,52,1,97,2,2,2,2,2,2,2,2,2,2,2,2,2,1,1,2,97,3,99,México,97,2
2021-01-30,26eecf,2,4,02,1,10,02,004,2,2020-12-09,2020-12-06,2020-12-22,2,1,71,1,2,2,2,1,2,2,2,1,2,2,2,2,2,2,1,1,2,97,3,99,México,97,2
2021-01-30,3b98d4,1,4,02,1,02,02,004,2,2020-12-11,2020-12-10,2020-12-22,2,2,82,1,2,2,2,1,1,2,2,1,1,2,2,2,2,2,1,1,2,97,3,99,México,97,2
2021-01-30,426d6c,2,4,02,2,14,02,004,2,2020-12-14,2020-12-11,2020-12-22,2,1,62,1,97,2,2,2,2,2,2,2,2,2,2,2,1,2,1,1,2,97,3,99,México,97,2
2021-01-30,2b6f95,1,4,02,2,12,02,004,2,2020-12-22,2020-12-09,2020-12-22,2,2,44,1,97,2,2,2,2,2,2,2,2,2,1,2,1,2,1,2,2,97,7,99,México,97,2
2021-01-30,3e23a0,2,4,02,2,25,02,004,2,2020-12-14,2020-12-01,2020-12-22,1,1,77,1,97,2,2,2,2,2,2,2,2,2,2,2,2,2,1,1,2,97,3,99,México,97,2
2021-01-30,42a472,1,4,02,1,16,02,004,2,2020-12-16,2020-12-09,2020-12-22,2,2,84,1,2,2,2,2,2,2,2,1,2,2,2,2,2,2,1,4,2,97,5,99,México,97,2
2021-01-30,3bff1d,1,4,02,1,09,02,004,2,2020-12-16,2020-12-16,2020-12-22,2,2,68,1,2,2,2,2,2,2,2,1,2,2,2,2,2,1,1,1,2,97,3,99,México,97,2
2021-01-30,40e6f6,2,9,02,1,02,02,004,2,2020-12-15,2020-12-10,2020-12-22,2,1,76,1,2,2,2,1,2,2,2,1,2,1,2,2,2,2,1,1,2,97,3,99,México,97,1
2021-01-30,24eedd,2,4,02,1,14,02,004,2,2020-12-17,2020-12-13,2020-12-22,2,1,56,1,2,2,2,2,2,2,2,1,2,2,2,1,2,2,1,1,2,97,3,99,México,97,2
2021-01-30,2ea48a,2,4,02,2,29,02,004,2,2020-12-17,2020-12-07,2020-12-22,2,1,79,1,97,2,2,2,2,2,2,2,2,2,2,2,2,2,1,1,2,97,3,99,México,97,2
2021-01-30,1f4a59,2,4,02,2,09,02,004,2,2020-12-17,2020-12-07,2020-12-22,2,1,59,1,97,2,2,2,2,2,2,2,2,2,2,2,2,2,1,1,2,97,3,99,México,97,2
2021-01-30,3cc6ba,1,4,02,2,08,02,004,2,2020-12-18,2020-12-17,2020-12-22,1,2,76,1,97,2,2,2,1,1,2,2,2,2,2,2,1,2,1,2,2,97,7,99,México,97,2
2021-01-30,3ea22d,2,4,02,2,11,02,004,2,2020-12-19,2020-12-12,2020-12-22,2,1,75,1,97,2,2,1,2,2,2,1,2,2,1,2,2,2,1,4,2,97,5,99,México,97,2
2021-01-30,380989,2,4,02,1,14,02,004,2,2020-12-20,2020-12-17,2020-12-22,2,1,73,1,2,2,2,1,2,2,2,2,2,2,2,2,2,2,1,1,2,97,3,99,México,97,2
2021-01-30,27b65a,2,4,02,2,02,02,004,2,2020-12-20,2020-12-07,2020-12-22,2,1,61,1,97,2,2,2,2,2,2,2,2,2,2,2,2,2,1,1,2,97,3,99,México,97,2
2021-01-30,38234b,1,4,02,2,02,02,004,2,2020-12-19,2020-12-12,2020-12-22,2,2,90,1,97,2,2,1,2,2,2,2,2,2,2,2,2,1,1,1,2,97,3,99,México,97,2
2021-01-30,27126f,2,4,02,2,07,02,004,2,2020-12-21,2020-12-20,2020-12-22,2,2,74,1,97,2,2,2,2,2,2,1,2,2,2,2,2,2,1,2,1,1,7,99,México,97,2
2021-01-30,3f03be,1,4,02,2,09,02,004,2,2020-12-22,2020-12-14,2020-12-22,1,2,61,1,97,2,2,1,2,2,2,2,2,2,2,2,2,2,1,1,2,97,3,99,México,97,2
2021-01-30,362ce4,1,4,02,1,09,02,004,2,2020-12-21,2020-12-13,2020-12-22,2,1,49,1,2,2,2,2,2,2,2,1,2,2,2,2,2,2,1,1,2,97,3,99,México,97,2
2021-01-30,3621ca,2,4,02,2,17,02,004,2,2020-12-22,2020-12-09,2020-12-22,2,2,34,1,97,2,2,2,2,2,2,2,2,2,1,2,2,2,1,2,2,97,7,99,México,97,2
2021-01-30,2c6a6c,2,4,02,2,25,02,004,2,2020-12-22,2020-12-21,2020-12-22,2,1,67,1,97,2,2,2,2,2,2,2,2,2,2,2,2,2,1,1,2,97,3,99,México,97,2
2021-01-30,26cf7d,2,4,02,1,12,02,004,2,2020-12-22,2020-12-16,2020-12-22,1,1,56,1,2,2,2,1,2,2,2,1,2,2,1,2,2,2,1,1,2,97,3,99,México,97,2
2021-01-30,22225d,2,4,02,1,02,02,004,2,2020-12-22,2020-12-20,2020-12-22,2,2,43,1,2,2,2,2,2,2,1,2,2,2,2,2,2,2,1,1,2,97,3,99,México,97,2
2021-01-30,e8f650,2,9,02,1,30,02,004,2,2020-11-25,2020-11-10,2020-12-22,1,1,74,1,2,2,2,1,2,2,2,1,2,2,2,2,2,2,1,1,2,97,3,99,México,97,1
