2021-01-30,1376d8,2,4,02,1,02,02,004,2,2020-07-25,2020-07-18,2020-08-07,1,1,60,1,2,2,2,2,2,2,2,2,1,2,2,2,2,99,1,1,2,97,3,99,México,97,2
2021-01-30,0cc638,1,12,02,2,26,02,004,2,2020-07-27,2020-07-20,2020-08-07,1,1,69,1,97,99,99,1,2,2,2,2,2,2,2,2,2,99,1,2,2,97,7,99,México,97,2
2021-01-30,0d5924,1,12,02,2,02,02,004,2,2020-07-29,2020-07-26,2020-08-07,1,1,57,1,97,99,99,1,2,2,2,2,2,2,2,2,2,99,1,1,2,97,3,99,México,97,2
