2021-01-30,19c45d,1,4,02,2,26,02,004,2,2020-04-05,2020-04-04,2020-04-21,2,1,49,1,97,2,2,1,1,1,2,1,2,2,2,2,2,99,1,1,2,97,3,99,México,97,2
2021-01-30,0fb476,1,12,02,2,02,02,004,2,2020-04-09,2020-04-08,2020-04-21,1,1,61,1,97,2,2,98,98,98,98,98,98,98,98,98,98,99,1,1,2,97,3,99,México,97,2
2021-01-30,03e043,2,4,02,1,09,02,004,2,2020-04-09,2020-04-03,2020-04-21,1,1,74,1,2,2,2,1,2,2,1,1,2,2,1,2,2,99,1,1,2,97,3,99,México,97,2
2021-01-30,1805cb,2,4,02,2,02,02,004,2,2020-04-12,2020-04-05,2020-04-21,1,1,52,1,97,2,2,1,2,2,2,1,2,2,1,2,2,2,2,97,2,97,6,99,México,97,2
2021-01-30,0e2e61,1,4,02,1,08,02,004,2,2020-04-16,2020-04-04,2020-04-21,2,1,56,1,2,2,2,2,2,2,2,1,2,2,2,2,2,99,1,2,2,97,7,99,México,97,2
2021-01-30,02d795,1,4,02,2,30,02,004,2,2020-04-17,2020-04-09,2020-04-21,99,2,52,1,97,2,2,1,2,2,2,2,2,2,2,2,2,99,2,97,2,97,6,99,México,97,99
2021-01-30,0d622e,1,12,02,2,02,02,004,2,2020-04-16,2020-04-12,2020-04-21,1,1,56,1,97,2,2,1,2,2,2,1,2,2,1,2,2,2,1,1,2,97,3,99,México,97,2
2021-01-30,1468f5,2,4,02,1,09,02,004,2,2020-04-19,2020-04-17,2020-04-21,1,1,52,1,2,2,2,1,2,2,2,1,2,2,2,1,2,99,1,1,2,97,3,99,México,97,2
2021-01-30,0461f5,1,4,02,2,25,02,004,2,2020-04-19,2020-04-16,2020-04-21,2,2,58,1,97,2,2,1,2,2,2,1,2,2,2,1,2,99,1,1,2,97,3,99,México,97,2
2021-01-30,17414c,1,4,02,1,07,02,004,2,2020-04-19,2020-04-14,2020-04-21,2,1,48,1,2,2,2,2,2,2,2,2,2,2,2,2,2,99,1,4,2,97,5,99,México,97,2
2021-01-30,1c00a8,1,12,02,2,02,02,004,2,2020-04-17,2020-04-15,2020-04-21,2,1,83,1,97,2,2,1,2,2,2,1,1,2,2,2,2,99,1,1,2,97,3,99,México,97,2
2021-01-30,09804f,1,12,02,1,02,02,004,2,2020-04-20,2020-04-17,2020-04-21,1,1,43,1,2,2,2,1,2,2,2,1,2,2,2,2,2,99,1,1,2,97,3,99,México,97,2
2021-01-30,150c2f,2,4,02,1,09,02,004,2,2020-04-19,2020-04-18,2020-04-21,2,2,39,1,2,2,2,1,2,2,2,2,2,2,2,2,2,99,1,1,2,97,3,99,México,97,2
2021-01-30,185b9e,1,4,02,2,25,02,004,2,2020-04-20,2020-04-12,2020-04-21,2,1,49,1,97,2,2,2,2,2,2,2,2,2,2,2,2,99,1,1,2,97,3,99,México,97,2
2021-01-30,1d3181,2,4,02,2,09,02,004,2,2020-04-21,2020-04-15,2020-04-21,99,1,54,1,97,2,2,2,2,2,2,1,1,2,1,2,2,99,2,97,2,97,6,99,México,97,99
2021-01-30,0b4f8b,2,4,02,1,29,02,004,2,2020-04-21,2020-04-17,2020-04-21,2,2,62,1,2,2,2,1,2,2,2,1,2,2,2,2,2,99,2,97,2,97,6,99,México,97,2
2021-01-30,119571,2,4,02,1,07,02,004,2,2020-04-21,2020-04-18,2020-04-21,1,1,50,1,2,2,2,2,2,2,2,2,2,2,2,2,2,99,1,1,2,97,3,99,México,97,2
2021-01-30,1cbcd8,2,4,02,1,02,02,004,2,2020-04-21,2020-04-17,2020-04-21,2,2,37,1,2,2,2,2,2,2,2,2,2,2,1,2,2,99,2,97,2,97,6,99,México,97,2
2021-01-30,1a9e8e,2,4,02,2,30,02,004,2,2020-04-06,2020-04-06,2020-04-21,2,1,66,1,97,2,2,1,2,2,2,2,1,2,2,2,2,99,1,4,2,97,5,99,México,97,2
2021-01-30,010e0e,2,4,02,2,02,02,004,2,2020-04-17,2020-04-17,2020-04-21,1,1,85,1,97,2,2,2,2,2,2,2,2,2,2,2,2,99,2,97,2,97,6,99,México,97,2
2021-01-30,05aeb5,2,4,02,2,09,02,004,2,2020-04-21,2020-04-12,2020-04-21,1,1,95,1,97,2,2,2,1,2,2,1,1,1,1,2,1,99,2,97,2,97,6,99,México,97,2
2021-01-30,0e005d,2,4,02,2,07,02,004,2,2020-04-18,2020-04-14,2020-04-21,2,1,50,1,97,2,2,1,2,2,2,2,2,2,2,2,1,99,2,97,2,97,6,99,México,97,2
2021-01-30,1aa8bd,2,4,02,2,14,02,004,2,2020-04-17,2020-04-11,2020-04-21,2,1,80,1,97,2,2,2,2,2,2,2,2,2,2,2,2,99,2,97,2,97,6,99,México,97,2
2021-01-30,1c7135,2,4,02,1,02,02,004,2,2020-04-19,2020-04-15,2020-04-21,2,1,43,1,2,2,2,2,2,2,2,2,2,2,1,2,2,99,2,97,2,97,6,99,México,97,2
