2021-01-30,245859,2,4,02,2,02,02,004,2,2020-10-12,2020-10-05,2020-11-02,2,1,69,1,97,2,2,2,2,2,2,1,2,2,2,2,2,2,1,1,2,97,3,99,México,97,2
2021-01-30,4581e2,1,12,02,2,09,02,004,2,2020-10-13,2020-10-06,2020-11-02,2,1,57,1,97,99,99,1,2,2,2,2,2,2,2,2,2,99,1,1,2,97,3,99,México,97,2
2021-01-30,227d15,2,4,02,2,09,02,004,2,2020-10-16,2020-10-08,2020-11-02,2,1,55,1,97,2,2,2,2,2,2,1,2,2,1,2,2,2,1,1,2,97,3,99,México,97,2
2021-01-30,3c5770,2,4,02,2,02,02,004,2,2020-10-18,2020-10-07,2020-11-02,2,1,58,1,97,2,2,1,2,2,2,2,1,2,1,2,2,2,1,1,2,97,3,99,México,97,2
2021-01-30,2d36b4,1,12,02,2,30,02,004,2,2020-10-19,2020-10-10,2020-11-02,2,1,57,1,97,2,2,2,2,2,2,2,2,2,2,2,2,2,1,1,2,97,3,99,México,97,2
2021-01-30,34b78b,1,12,02,2,14,02,004,2,2020-10-21,2020-10-17,2020-11-02,1,1,73,1,97,99,99,2,2,2,2,2,2,2,2,2,2,2,1,1,2,97,3,99,México,97,2
2021-01-30,2592fb,2,4,02,1,02,02,004,2,2020-10-23,2020-10-22,2020-11-02,2,1,61,1,2,2,2,2,2,2,2,1,2,2,2,2,2,2,1,1,2,97,3,99,México,97,2
2021-01-30,396438,2,4,02,1,14,02,004,2,2020-10-23,2020-10-10,2020-11-02,2,1,81,1,2,2,2,1,2,2,2,1,2,2,2,2,2,2,1,1,2,97,3,99,México,97,2
2021-01-30,2f4e38,2,4,02,1,16,02,004,2,2020-10-26,2020-10-22,2020-11-02,2,1,57,1,2,2,2,1,2,2,2,1,2,2,2,1,2,2,1,1,2,97,3,99,México,97,2
2021-01-30,34c841,2,4,02,1,14,02,004,2,2020-11-01,2020-10-25,2020-11-02,2,1,89,1,2,2,2,2,2,2,2,2,2,2,2,2,2,2,1,1,2,97,3,99,México,97,2
2021-01-30,42db3a,2,4,02,2,14,02,004,2,2020-11-01,2020-10-25,2020-11-02,2,1,70,1,97,2,2,2,1,2,2,2,1,2,2,2,1,2,1,1,2,97,3,99,México,97,2
2021-01-30,405f07,2,4,02,2,16,02,004,2,2020-11-02,2020-10-08,2020-11-02,2,1,69,1,97,2,2,2,2,2,2,2,2,2,2,2,2,2,1,1,2,97,3,99,México,97,2
