2021-01-30,20a0ca,2,4,02,2,08,02,004,2,2020-10-12,2020-10-07,2020-10-18,2,1,64,1,97,2,2,1,2,2,2,1,2,1,1,1,2,1,1,1,2,97,3,99,México,97,2
2021-01-30,3736de,2,4,02,2,14,02,004,2,2020-10-15,2020-10-08,2020-10-18,2,1,90,1,97,2,2,2,2,2,2,1,2,2,2,2,1,2,1,1,2,97,3,99,México,97,2
2021-01-30,35a10b,2,4,02,2,16,02,004,2,2020-10-15,2020-10-10,2020-10-18,2,1,80,1,97,2,2,2,2,2,2,2,2,1,2,2,2,2,1,1,2,97,3,99,México,97,2
2021-01-30,438e4d,2,4,02,2,14,02,004,2,2020-10-18,2020-10-17,2020-10-18,2,1,46,1,97,2,2,2,2,2,2,2,1,2,2,2,2,2,1,1,2,97,3,99,México,97,2
