2021-01-30,040757,2,4,02,1,10,02,004,2,2020-04-20,2020-04-20,2020-05-16,2,1,72,1,2,2,2,1,2,2,2,1,1,2,2,2,2,99,1,1,2,97,3,99,México,97,2
2021-01-30,1cb133,1,12,02,2,09,02,004,2,2020-05-03,2020-04-28,2020-05-16,2,1,56,1,97,2,2,1,2,2,2,1,2,2,2,2,1,2,1,1,2,97,3,99,México,97,2
2021-01-30,1a9fce,1,4,02,1,18,02,004,2,2020-05-02,2020-04-29,2020-05-16,1,1,46,1,2,2,2,2,2,2,2,2,2,2,2,2,2,99,1,1,2,97,3,99,México,97,2
2021-01-30,15801c,2,4,02,1,16,02,004,2,2020-05-04,2020-04-29,2020-05-16,1,1,56,1,2,2,2,1,2,2,2,1,2,1,1,2,2,99,1,1,2,97,3,99,México,97,2
2021-01-30,0f1466,2,4,02,2,07,02,004,2,2020-05-04,2020-04-29,2020-05-16,1,1,53,1,97,2,2,2,2,2,2,2,1,2,2,2,2,99,1,1,2,97,3,99,México,97,2
2021-01-30,08efd8,1,12,02,2,14,02,004,2,2020-05-05,2020-05-04,2020-05-16,2,1,65,1,97,2,2,1,2,2,2,2,2,2,2,2,2,2,1,1,2,97,3,99,México,97,2
2021-01-30,07af52,2,4,02,1,16,02,004,2,2020-05-06,2020-05-01,2020-05-16,2,1,51,1,2,2,2,1,2,2,2,1,2,2,2,2,2,99,1,2,2,97,7,99,México,97,2
2021-01-30,07f78d,2,4,02,1,02,02,004,2,2020-05-06,2020-04-24,2020-05-16,2,1,81,1,2,2,2,2,2,2,2,1,2,2,2,2,2,99,1,4,2,97,6,99,México,97,2
2021-01-30,1b6b70,1,4,02,1,14,02,004,2,2020-05-06,2020-04-24,2020-05-16,1,1,91,1,2,2,2,2,1,2,2,2,2,2,2,2,2,99,1,1,2,97,3,99,México,97,2
2021-01-30,09ebcd,2,4,02,1,18,02,004,2,2020-05-02,2020-05-02,2020-05-16,2,1,46,1,2,2,2,1,2,2,2,1,1,2,1,2,2,99,1,4,2,97,5,99,México,97,2
2021-01-30,0dc19c,1,12,02,2,02,02,004,2,2020-05-09,2020-05-02,2020-05-16,2,1,55,1,97,2,2,1,2,2,2,1,2,2,2,2,2,2,1,1,2,97,3,99,México,97,2
2021-01-30,0b9bd0,1,12,02,2,02,02,004,2,2020-05-11,2020-05-05,2020-05-16,2,1,45,1,97,2,2,2,2,2,2,2,2,2,2,2,2,2,1,1,2,97,3,99,México,97,2
2021-01-30,0fb24f,1,4,02,2,18,02,004,2,2020-05-01,2020-05-01,2020-05-16,1,2,53,1,97,2,2,1,2,2,2,2,2,2,2,2,2,99,1,1,2,97,3,99,México,97,2
2021-01-30,0e02bb,2,4,02,2,30,02,004,2,2020-05-11,2020-04-28,2020-05-16,2,2,39,1,97,2,2,2,2,2,2,2,2,2,2,2,2,99,1,1,2,97,3,99,México,97,2
2021-01-30,1215f4,1,4,02,1,16,02,004,2,2020-05-11,2020-05-08,2020-05-16,2,2,75,1,2,2,1,1,2,2,2,1,2,2,2,2,2,99,1,1,2,97,3,99,México,97,2
2021-01-30,1e63c9,2,12,02,2,02,02,004,2,2020-05-13,2020-05-13,2020-05-16,99,2,62,1,97,2,2,2,2,2,2,1,2,2,2,2,2,99,2,97,2,97,6,99,México,97,99
2021-01-30,0be0e2,1,12,02,1,25,02,004,2,2020-05-14,2020-05-08,2020-05-16,2,1,51,1,2,2,2,2,2,2,1,2,2,2,2,2,2,2,1,1,2,97,3,99,México,97,2
2021-01-30,17744f,1,4,02,2,25,02,004,2,2020-05-12,2020-05-05,2020-05-16,2,2,76,1,97,2,2,2,2,2,2,1,1,2,2,2,1,99,1,1,2,97,3,99,México,97,2
2021-01-30,15e423,2,4,02,2,02,02,004,2,2020-05-14,2020-05-07,2020-05-16,1,1,27,1,97,2,2,1,2,2,2,2,2,2,2,2,2,99,1,1,2,97,3,99,México,97,2
2021-01-30,13ae0e,2,4,02,1,32,02,004,2,2020-05-15,2020-05-13,2020-05-16,2,1,80,1,2,2,2,2,2,2,2,2,2,2,1,2,2,99,1,1,2,97,3,99,México,97,2
2021-01-30,050068,2,4,02,1,02,02,004,2,2020-05-15,2020-05-15,2020-05-16,2,1,0,1,2,2,2,2,2,2,2,2,2,2,2,2,2,99,1,2,2,97,7,99,México,97,2
2021-01-30,11ac27,2,4,02,2,02,02,004,2,2020-05-12,2020-04-29,2020-05-16,2,1,77,1,97,2,2,2,2,2,2,1,2,2,2,2,2,99,1,1,2,97,3,99,México,97,2
