2021-01-30,0fcf65,2,4,02,2,02,02,004,2,2020-06-20,2020-06-16,2020-07-12,1,1,44,1,97,2,2,1,2,2,2,2,2,2,2,2,2,99,1,1,2,97,3,99,México,97,2
2021-01-30,1568da,1,12,02,2,02,02,004,2,2020-07-02,2020-06-28,2020-07-12,2,1,74,1,97,99,99,1,2,2,2,1,2,2,2,2,2,99,1,2,2,97,7,99,México,97,2
2021-01-30,0d9c63,2,12,02,2,02,02,004,2,2020-07-03,2020-07-01,2020-07-12,99,2,43,1,97,2,2,2,2,2,2,2,2,2,2,2,2,1,1,1,2,97,3,99,México,97,99
2021-01-30,1d21d3,2,4,02,2,16,02,004,2,2020-07-05,2020-07-05,2020-07-12,1,2,11,1,97,2,2,2,2,2,2,2,1,1,2,2,2,99,1,1,2,97,3,99,México,97,1
2021-01-30,0533c0,2,4,02,2,32,02,004,2,2020-07-09,2020-07-08,2020-07-12,2,1,49,1,97,2,2,1,2,2,2,1,2,2,1,2,1,99,1,1,2,97,3,99,México,97,2
2021-01-30,1037b2,2,4,02,2,13,02,004,2,2020-07-08,2020-07-05,2020-07-12,2,1,56,1,97,2,2,1,2,2,2,1,1,2,2,1,2,99,1,1,2,97,3,99,México,97,2
2021-01-30,0eebec,2,4,02,2,02,02,004,2,2020-07-10,2020-07-09,2020-07-12,2,1,49,1,97,2,2,2,2,2,2,2,2,2,2,2,2,99,1,1,2,97,3,99,México,97,2
2021-01-30,12141d,2,4,02,2,02,02,004,2,2020-07-12,2020-07-06,2020-07-12,2,2,63,1,97,2,2,2,2,2,2,2,1,2,2,2,2,99,1,2,2,97,7,99,México,97,2
