2021-01-30,3d67d3,1,12,02,2,02,02,004,2,2020-12-21,2020-12-15,2021-01-06,2,1,55,1,97,99,99,1,2,2,2,2,2,2,2,2,2,2,1,1,2,97,3,99,México,97,2
2021-01-30,2248be,2,4,02,2,14,02,004,2,2020-12-22,2020-12-15,2021-01-06,2,1,70,1,97,2,2,2,2,2,2,1,1,2,2,2,2,2,1,1,2,97,3,99,México,97,2
2021-01-30,2e98b4,1,4,02,2,16,02,004,2,2020-12-24,2020-12-21,2021-01-06,1,1,60,1,97,2,2,1,2,1,2,2,2,2,2,2,2,2,1,1,2,97,3,99,México,97,2
2021-01-30,2a5b46,2,4,02,2,25,02,004,2,2020-12-29,2020-12-28,2021-01-06,2,1,87,1,97,2,2,1,1,2,2,1,2,2,2,2,2,2,1,1,1,2,3,99,México,97,2
2021-01-30,34f12f,1,12,02,2,15,02,004,2,2020-12-26,2020-12-18,2021-01-06,2,1,34,1,97,99,99,2,2,2,2,1,1,2,1,2,2,2,1,1,2,97,3,99,México,97,2
2021-01-30,26cdcf,2,4,02,1,25,02,004,2,2020-12-26,2020-12-15,2021-01-06,2,1,89,1,2,2,2,2,2,2,2,1,2,2,2,2,2,2,1,1,1,1,3,99,México,97,2
2021-01-30,4056fa,1,12,02,2,16,02,004,2,2020-12-30,2020-12-20,2021-01-06,2,1,56,1,97,99,99,2,2,1,2,2,2,2,2,2,1,2,1,1,2,97,3,99,México,97,2
2021-01-30,2cd61b,2,4,02,2,14,02,004,2,2020-12-30,2020-12-22,2021-01-06,2,1,49,1,97,2,2,2,2,2,2,2,1,2,2,2,2,1,1,1,1,2,3,99,México,97,2
2021-01-30,335ff3,2,4,02,2,32,02,004,2,2021-01-01,2020-12-15,2021-01-06,2,1,68,1,97,2,2,2,2,2,2,2,2,2,2,2,2,2,1,2,1,1,7,99,México,97,2
2021-01-30,3be2ec,2,4,02,1,25,02,004,2,2021-01-02,2020-12-28,2021-01-06,2,1,87,1,2,2,2,2,2,2,2,2,2,2,2,2,2,1,1,2,1,1,7,99,México,97,2
2021-01-30,1fed6d,2,4,02,2,02,02,004,2,2021-01-02,2020-12-25,2021-01-06,2,1,79,1,97,2,2,2,2,2,2,2,1,2,2,2,2,2,2,97,1,1,3,99,México,97,2
2021-01-30,2cb236,2,4,02,2,18,02,004,2,2021-01-03,2020-12-24,2021-01-06,2,1,82,1,97,2,2,2,2,2,2,1,2,2,2,2,2,2,1,1,1,1,3,99,México,97,2
2021-01-30,31d11e,2,4,02,2,11,02,004,2,2021-01-03,2020-12-30,2021-01-06,1,1,72,1,97,2,2,2,2,2,2,1,2,2,2,2,2,2,2,97,1,1,3,99,México,97,2
2021-01-30,3deb44,1,4,02,2,29,02,004,2,2021-01-04,2021-01-03,2021-01-06,2,2,85,1,97,2,2,2,1,2,2,1,2,2,2,2,2,2,2,97,1,1,3,99,México,97,2
2021-01-30,323d12,2,4,02,2,09,02,004,2,2021-01-04,2020-12-24,2021-01-06,2,1,75,1,97,2,2,1,2,2,2,1,1,2,1,2,2,2,1,2,1,1,7,99,México,97,2
2021-01-30,276466,2,4,02,2,02,02,004,2,2021-01-04,2020-12-24,2021-01-06,2,1,62,1,97,2,2,2,2,2,2,1,2,2,2,2,2,2,1,1,1,1,3,99,México,97,2
2021-01-30,36713c,2,4,02,1,25,02,004,2,2021-01-04,2020-12-26,2021-01-06,2,1,60,1,2,2,2,1,2,2,2,1,2,2,2,2,2,2,1,1,1,1,3,99,México,97,2
2021-01-30,252ee3,2,4,02,1,25,02,004,2,2021-01-04,2020-12-21,2021-01-06,2,1,51,1,2,2,2,1,2,2,2,1,2,2,2,2,2,2,1,1,1,1,3,99,México,97,2
2021-01-30,1e90ed,2,4,02,2,17,02,004,2,2021-01-05,2020-12-22,2021-01-06,2,1,54,1,97,2,2,2,2,2,2,2,2,2,2,2,2,2,1,1,1,2,3,99,México,97,2
2021-01-30,1ef01f,1,12,02,1,02,02,004,2,2021-01-04,2020-12-28,2021-01-06,2,1,92,1,2,99,99,98,98,98,98,98,98,98,2,98,98,99,1,1,2,97,3,99,México,97,2
2021-01-30,3dc91f,2,4,02,1,16,02,004,2,2021-01-05,2020-12-28,2021-01-06,2,1,52,1,2,2,2,1,2,2,2,1,2,2,2,2,2,2,1,1,1,1,3,99,México,97,2
2021-01-30,214e41,2,4,02,1,14,02,004,2,2021-01-05,2020-12-28,2021-01-06,2,1,63,1,2,2,2,1,2,2,2,2,2,2,1,2,1,2,1,1,2,97,3,99,México,97,2
2021-01-30,424232,2,4,02,1,12,02,004,2,2021-01-04,2021-01-04,2021-01-06,2,2,52,1,2,2,2,1,2,2,2,2,2,2,2,2,2,2,1,2,2,97,7,99,México,97,2
2021-01-30,45b0fa,2,4,02,2,18,02,004,2,2021-01-06,2020-12-23,2021-01-06,2,1,78,1,97,2,2,1,2,2,2,1,2,2,1,2,2,2,1,1,2,97,3,99,México,97,2
2021-01-30,24cc88,2,4,02,2,25,02,004,2,2021-01-06,2021-01-04,2021-01-06,2,1,70,1,97,2,2,2,2,2,2,2,2,2,2,2,2,2,1,1,2,97,3,99,México,97,2
2021-01-30,44161c,2,9,02,2,02,02,004,2,2020-12-21,2020-12-15,2021-01-06,2,1,62,1,97,2,2,2,2,2,2,2,2,2,2,2,2,1,1,1,2,97,3,99,México,97,1
2021-01-30,3e00ee,1,12,02,1,13,02,004,2,2021-01-02,2020-12-25,2021-01-06,2,1,63,1,2,99,99,1,2,2,2,1,2,2,2,2,2,2,1,1,2,97,3,99,México,97,2
