2021-01-30,2e5176,1,4,02,2,14,02,004,2,2020-10-05,2020-10-05,2020-10-15,2,1,68,1,97,2,2,2,2,2,1,1,2,2,2,1,2,2,1,2,2,97,7,99,México,97,2
2021-01-30,436d16,2,4,02,2,07,02,004,2,2020-10-13,2020-10-06,2020-10-15,2,1,41,1,97,2,2,2,2,2,1,2,2,2,2,2,2,2,1,1,2,97,3,99,México,97,2
2021-01-30,27815a,2,4,02,2,01,02,004,2,2020-10-13,2020-10-12,2020-10-15,2,1,69,1,97,2,2,1,2,2,2,1,1,2,2,2,1,2,1,1,2,97,3,99,México,97,2
