2021-01-30,3616f5,1,4,02,2,14,02,004,2,2020-12-25,2020-12-20,2021-01-21,1,2,71,1,97,2,2,2,2,2,2,2,2,2,2,2,2,2,1,1,2,97,3,99,México,97,2
2021-01-30,333bba,2,4,02,1,14,02,004,2,2021-01-06,2021-01-06,2021-01-21,2,1,87,1,2,2,2,2,2,2,2,2,2,2,2,2,2,2,2,97,1,1,3,99,México,97,2
2021-01-30,28ee4d,2,4,02,1,09,02,004,2,2021-01-06,2021-01-04,2021-01-21,2,1,65,1,2,2,2,1,2,2,2,1,2,2,2,2,2,2,1,1,1,2,3,99,México,97,2
2021-01-30,33a3e4,2,4,02,1,18,02,004,2,2021-01-09,2020-12-30,2021-01-21,2,1,61,1,2,2,2,2,2,2,2,2,2,2,2,2,2,2,1,1,1,2,3,99,México,97,2
2021-01-30,454209,2,4,02,1,10,02,004,2,2021-01-09,2021-01-06,2021-01-21,1,1,70,1,2,2,2,1,2,2,2,1,2,2,2,2,2,2,2,97,1,1,3,99,México,97,2
2021-01-30,2c349f,2,4,02,2,09,02,004,2,2021-01-10,2021-01-03,2021-01-21,2,1,72,1,97,2,2,1,2,2,2,1,2,2,2,2,2,2,2,97,1,1,3,99,México,97,2
2021-01-30,40a794,2,4,02,1,32,02,004,2,2021-01-10,2020-12-26,2021-01-21,1,1,65,1,2,2,2,2,2,2,2,2,2,2,2,2,2,2,2,97,1,1,3,99,México,97,2
2021-01-30,44384a,1,4,02,1,25,02,004,2,2021-01-10,2021-01-02,2021-01-21,2,2,63,1,2,2,2,2,2,2,2,1,2,2,1,2,1,1,1,1,1,1,3,99,México,97,2
2021-01-30,276d9a,2,4,02,1,18,02,004,2,2021-01-13,2021-01-12,2021-01-21,2,1,62,1,2,2,2,1,2,2,2,1,2,2,2,2,2,2,1,2,1,2,7,99,México,97,2
2021-01-30,41fb9e,1,4,02,2,09,02,004,2,2021-01-12,2021-01-03,2021-01-21,2,2,53,1,97,2,2,2,2,2,2,2,2,2,2,2,2,2,1,1,2,97,3,99,México,97,2
2021-01-30,3d07c0,1,12,02,2,02,02,004,2,2021-01-05,2020-12-31,2021-01-21,2,1,50,1,97,99,99,1,2,2,2,2,2,2,2,2,2,2,1,1,2,97,3,99,México,97,2
2021-01-30,cc6af9,1,12,02,2,21,02,004,2,2021-01-12,2021-01-05,2021-01-21,1,1,61,1,97,99,99,2,2,2,2,1,1,1,1,2,2,1,1,1,2,97,3,99,México,97,2
2021-01-30,8e9721,2,4,02,2,14,02,004,2,2021-01-18,2020-12-22,2021-01-21,2,1,64,1,97,2,2,2,2,2,2,2,2,2,2,2,2,2,1,1,1,2,3,99,México,97,2
2021-01-30,65c236,1,12,02,2,09,02,004,2,2021-01-18,2021-01-13,2021-01-21,2,1,56,1,97,99,99,1,2,2,2,2,2,2,2,2,1,1,1,1,2,97,3,99,México,97,2
2021-01-30,9f6509,1,12,02,1,02,02,004,2,2021-01-19,2021-01-16,2021-01-21,2,2,67,1,2,99,99,1,2,2,2,1,2,2,2,1,2,99,1,2,2,97,7,99,México,97,2
2021-01-30,7a97c3,1,4,02,2,02,02,004,2,2021-01-19,2021-01-18,2021-01-21,1,2,43,1,97,2,2,1,2,2,2,2,2,2,2,2,2,2,1,2,1,2,7,99,México,97,2
2021-01-30,58a59b,2,4,02,1,02,02,004,2,2021-01-20,2021-01-15,2021-01-21,2,1,49,1,2,2,2,2,2,2,2,2,2,2,1,2,2,2,1,1,1,2,3,99,México,97,2
2021-01-30,991179,1,4,02,1,02,02,004,2,2021-01-20,2021-01-20,2021-01-21,2,2,1,1,2,2,2,2,2,2,2,2,2,2,2,2,2,2,2,97,1,2,7,99,México,97,2
2021-01-30,85532d,2,4,02,1,07,02,004,2,2021-01-21,2021-01-11,2021-01-21,2,1,52,1,2,2,2,1,2,2,2,1,2,2,2,2,2,2,1,1,2,97,3,99,México,97,2
2021-01-30,c02ccf,2,4,02,1,30,02,004,2,2021-01-21,2021-01-07,2021-01-21,2,1,83,1,2,2,2,2,2,2,2,2,1,2,1,2,2,2,1,4,2,97,5,99,México,97,2
2021-01-30,5dbd0c,2,4,02,2,16,02,004,2,2021-01-19,2021-01-11,2021-01-21,1,1,50,1,97,2,2,2,2,2,2,2,2,2,2,2,2,2,2,97,2,97,6,99,México,97,2
2021-01-30,db9240,1,12,02,2,18,02,004,2,2021-01-14,2021-01-07,2021-01-21,2,1,65,1,97,99,99,2,2,2,2,1,2,2,2,2,1,2,1,1,2,97,3,99,México,97,2
