2021-01-30,0f095a,1,12,02,2,16,02,004,2,2020-07-25,2020-07-10,2020-08-17,1,1,58,1,97,2,2,2,2,2,2,2,2,2,2,2,2,99,1,1,2,97,3,99,México,97,2
2021-01-30,12fbb6,2,4,02,2,21,02,004,2,2020-07-28,2020-07-20,2020-08-17,2,1,43,1,97,2,2,1,2,2,2,2,2,2,2,2,2,99,1,1,2,97,3,99,México,97,2
2021-01-30,1667fc,1,12,02,2,02,02,004,2,2020-07-30,2020-07-26,2020-08-17,1,1,70,1,97,99,99,1,2,2,2,1,2,2,2,2,2,99,1,2,2,97,7,99,México,97,2
2021-01-30,1cf499,2,4,02,2,02,02,004,2,2020-07-30,2020-07-20,2020-08-17,1,1,55,1,97,2,2,2,2,2,2,2,2,2,1,2,2,1,1,1,2,97,3,99,México,97,1
2021-01-30,09568e,1,12,02,1,02,02,004,2,2020-08-03,2020-07-26,2020-08-17,2,1,45,1,2,99,99,1,2,2,2,2,2,2,1,2,2,2,1,1,2,97,3,99,México,97,2
2021-01-30,0ac70e,1,12,02,1,20,02,004,2,2020-08-04,2020-07-27,2020-08-17,2,1,79,1,2,99,99,2,2,2,2,2,2,2,2,2,2,2,1,1,2,97,3,99,México,97,2
2021-01-30,09b566,1,12,02,1,14,02,004,2,2020-08-12,2020-08-10,2020-08-17,2,1,58,1,2,2,2,2,2,2,2,1,2,2,2,2,2,1,1,2,2,97,7,99,México,97,2
2021-01-30,10ba9a,2,4,02,2,25,02,004,2,2020-08-13,2020-07-30,2020-08-17,2,1,73,1,97,2,2,1,2,2,2,2,2,2,2,2,2,2,1,1,2,97,3,99,México,97,2
2021-01-30,12e850,2,4,02,1,02,02,004,2,2020-08-14,2020-08-09,2020-08-17,2,2,14,1,2,2,2,2,2,2,2,2,2,2,2,2,2,2,1,1,2,97,3,99,México,97,2
2021-01-30,189557,1,12,02,2,17,02,004,2,2020-08-17,2020-08-09,2020-08-17,1,1,69,1,97,2,2,2,2,2,2,2,1,2,2,2,1,2,1,1,2,97,3,99,México,97,2
