2021-01-30,252528,1,4,02,1,13,02,004,2,2020-09-13,2020-09-11,2020-09-27,2,1,63,1,2,2,2,1,2,2,2,1,2,2,1,1,2,2,1,1,2,97,3,99,México,97,2
2021-01-30,401c4a,1,12,02,2,08,02,004,2,2020-09-19,2020-09-10,2020-09-27,2,1,58,1,97,99,99,1,2,2,2,1,2,2,2,2,2,99,1,1,2,97,3,99,México,97,2
2021-01-30,3bb799,2,4,02,2,16,02,004,2,2020-09-22,2020-09-15,2020-09-27,2,1,60,1,97,2,2,2,2,2,2,1,2,2,2,2,2,2,1,1,2,97,3,99,México,97,2
2021-01-30,3c9d2e,2,4,02,2,02,02,004,2,2020-09-25,2020-09-20,2020-09-27,2,1,52,1,97,2,2,1,2,2,2,2,2,2,2,2,2,2,1,1,2,97,3,99,México,97,2
2021-01-30,2e1931,2,4,02,2,02,02,004,2,2020-09-27,2020-09-21,2020-09-27,2,1,63,1,97,2,2,1,2,2,2,1,2,1,1,2,2,2,1,1,2,97,3,99,México,97,2
