2021-01-30,0c3307,2,4,02,1,16,02,004,2,2020-05-07,2020-05-01,2020-05-24,2,1,53,1,2,2,2,1,2,2,2,1,2,2,2,2,2,99,1,1,2,97,3,99,México,97,2
2021-01-30,15bcbc,2,4,02,2,18,02,004,2,2020-05-08,2020-05-03,2020-05-24,2,1,61,1,97,2,2,2,1,2,2,2,2,2,2,2,1,99,1,1,2,97,3,99,México,97,2
2021-01-30,0b15eb,1,4,02,2,20,02,004,2,2020-05-17,2020-05-09,2020-05-24,2,2,69,1,97,2,2,1,2,2,2,2,2,2,2,2,2,99,1,1,2,97,3,99,México,97,2
2021-01-30,16e073,1,12,02,2,02,02,004,2,2020-05-11,2020-05-06,2020-05-24,2,1,57,1,97,2,2,2,2,2,2,2,2,2,2,2,2,2,1,1,2,97,3,99,México,97,2
2021-01-30,1c16b8,1,4,02,2,02,02,004,2,2020-05-12,2020-05-05,2020-05-24,2,1,46,1,97,2,2,2,2,2,2,2,2,2,2,2,1,99,1,1,2,97,3,99,México,97,2
2021-01-30,038f9c,1,4,02,2,02,02,004,2,2020-05-15,2020-05-12,2020-05-24,1,2,20,1,97,2,2,2,2,2,2,2,2,2,2,2,2,99,1,1,2,97,3,99,México,97,2
2021-01-30,04dc92,2,4,02,2,29,02,004,2,2020-05-17,2020-05-15,2020-05-24,2,1,59,1,97,2,2,2,2,2,2,2,2,2,2,2,2,99,1,1,2,97,3,99,México,97,2
2021-01-30,171300,1,12,02,1,21,02,004,2,2020-05-16,2020-05-11,2020-05-24,1,1,61,1,2,2,2,1,2,2,2,1,2,2,2,2,2,2,1,1,2,97,3,99,México,97,2
2021-01-30,0fdb96,1,12,02,2,17,02,004,2,2020-05-17,2020-05-11,2020-05-24,2,1,37,1,97,2,2,2,2,2,2,2,2,2,1,2,2,2,1,1,2,97,3,99,México,97,2
2021-01-30,154576,1,4,02,1,02,02,004,2,2020-05-12,2020-05-12,2020-05-24,2,1,48,1,2,2,2,2,2,2,2,2,2,2,2,2,2,99,1,2,2,97,7,99,México,97,2
2021-01-30,091ad7,1,4,02,2,05,02,004,2,2020-05-10,2020-05-10,2020-05-24,2,2,66,1,97,2,2,1,2,2,2,1,2,2,2,2,1,99,1,1,2,97,3,99,México,97,2
2021-01-30,041292,2,4,02,2,02,02,004,2,2020-05-19,2020-05-19,2020-05-24,2,1,68,1,97,2,2,2,1,2,2,2,2,2,2,2,1,99,1,2,2,97,7,99,México,97,2
2021-01-30,06a9c2,1,4,02,1,09,02,004,2,2020-05-20,2020-05-06,2020-05-24,1,1,64,1,2,2,2,2,2,2,2,2,2,2,2,2,2,2,1,4,2,97,5,99,México,97,2
2021-01-30,0f7493,2,4,02,1,02,02,004,2,2020-05-21,2020-05-13,2020-05-24,2,1,30,1,2,2,2,2,2,2,2,1,2,2,2,2,2,2,2,97,2,97,6,99,México,97,2
2021-01-30,0a1ec3,1,12,02,2,02,02,004,2,2020-05-21,2020-05-14,2020-05-24,2,1,23,1,97,2,2,2,2,2,2,2,2,2,2,2,2,2,1,2,2,97,7,99,México,97,2
2021-01-30,02dd7d,1,12,06,1,12,02,004,2,2020-05-22,2020-05-21,2020-05-24,2,1,37,1,2,2,2,2,2,2,2,2,2,2,2,2,1,2,1,1,2,97,3,99,México,97,2
2021-01-30,18efe8,2,4,02,1,12,02,004,2,2020-05-23,2020-05-20,2020-05-24,2,2,64,1,2,2,2,2,2,2,2,1,1,2,2,2,1,99,1,1,2,97,3,99,México,97,2
2021-01-30,0d7463,2,6,02,1,02,02,004,2,2020-05-24,2020-05-24,2020-05-24,1,1,2,1,2,2,2,2,2,2,2,2,2,2,2,1,2,2,1,2,2,97,7,99,México,97,2
2021-01-30,1d3c24,1,4,02,2,07,02,004,2,2020-05-13,2020-05-13,2020-05-24,2,2,53,1,97,2,2,1,2,2,2,1,1,2,2,2,1,99,2,97,2,97,6,99,México,97,2
