2021-01-30,1de42f,2,4,02,1,02,02,004,2,2020-04-24,2020-04-14,2020-06-19,99,1,49,1,2,2,2,2,1,2,2,2,2,2,2,2,2,99,1,1,2,97,3,99,México,97,99
2021-01-30,1c18dc,2,4,02,2,10,02,004,2,2020-06-10,2020-06-05,2020-06-19,2,2,66,1,97,2,2,2,2,2,2,1,2,2,2,2,2,99,1,4,2,97,5,99,México,97,2
2021-01-30,125aa2,2,4,02,1,02,02,004,2,2020-06-17,2020-06-09,2020-06-19,2,1,54,1,2,2,2,1,2,2,2,1,2,2,1,2,2,99,1,1,2,97,3,99,México,97,2
2021-01-30,0d6791,1,4,02,1,11,02,004,2,2020-06-19,2020-06-17,2020-06-19,2,2,35,1,2,2,2,1,2,2,2,1,2,2,2,2,2,2,2,97,2,97,6,99,México,97,2
2021-01-30,071039,1,4,02,2,16,02,004,2,2020-06-19,2020-06-12,2020-06-19,2,2,76,1,97,2,2,2,2,2,2,2,2,2,2,2,2,99,2,97,2,97,6,99,México,97,2
