2021-01-30,111327,1,12,02,1,26,02,004,2,2020-05-07,2020-05-06,2020-06-04,2,1,38,1,2,2,2,2,2,2,2,2,2,2,2,2,2,2,1,1,2,97,3,99,México,97,2
2021-01-30,06b978,1,4,02,1,02,02,004,2,2020-05-18,2020-05-13,2020-06-04,99,2,69,1,2,2,2,2,2,2,2,2,2,2,2,2,2,99,1,2,2,97,7,99,México,97,99
2021-01-30,039540,2,4,02,2,17,02,004,2,2020-05-20,2020-05-20,2020-06-04,2,2,71,1,97,2,2,2,1,2,2,1,2,2,2,2,2,99,1,1,2,97,3,99,México,97,2
2021-01-30,19af50,2,4,02,1,25,02,004,2,2020-05-22,2020-05-19,2020-06-04,2,1,70,1,2,2,2,1,2,2,2,1,2,2,1,2,2,99,1,1,2,97,3,99,México,97,2
2021-01-30,01d4e8,1,12,02,2,32,02,004,2,2020-05-25,2020-05-18,2020-06-04,2,1,81,1,97,2,2,2,2,2,2,2,2,2,2,2,2,2,1,1,2,97,3,99,México,97,2
2021-01-30,1c6871,1,4,02,2,20,02,004,2,2020-05-22,2020-05-08,2020-06-04,2,1,62,1,97,2,2,2,2,2,2,1,2,2,2,2,2,99,1,1,2,97,3,99,México,97,2
2021-01-30,083d99,2,4,02,2,16,02,004,2,2020-05-25,2020-05-21,2020-06-04,2,1,45,1,97,2,2,2,2,2,2,2,2,2,2,2,2,99,1,1,2,97,3,99,México,97,2
2021-01-30,064b6f,2,4,02,1,10,02,004,2,2020-05-27,2020-05-26,2020-06-04,1,1,59,1,2,2,2,2,2,2,2,1,2,2,2,2,2,99,1,1,2,97,3,99,México,97,2
2021-01-30,13c350,2,4,02,1,12,02,004,2,2020-05-27,2020-05-15,2020-06-04,1,2,66,1,2,2,2,1,2,2,2,1,2,2,1,2,2,99,1,1,2,97,3,99,México,97,2
2021-01-30,114b33,1,12,02,2,30,02,004,2,2020-05-27,2020-05-21,2020-06-04,2,1,24,1,97,2,2,2,2,2,2,2,2,2,2,2,2,2,1,1,2,97,3,99,México,97,2
2021-01-30,08635c,1,4,02,2,02,02,004,2,2020-05-29,2020-05-29,2020-06-04,1,2,32,1,97,2,2,2,2,2,2,1,2,2,2,2,1,2,1,2,2,97,7,99,México,97,2
2021-01-30,1e5a11,2,4,02,1,16,02,004,2,2020-06-02,2020-05-31,2020-06-04,1,1,65,1,2,2,2,1,2,2,2,1,2,2,2,2,2,99,1,1,2,97,3,99,México,97,2
2021-01-30,035cd1,1,12,02,2,02,02,004,2,2020-06-03,2020-05-31,2020-06-04,2,1,50,1,97,2,2,98,98,98,98,98,98,98,98,98,98,2,1,2,2,97,7,99,México,97,2
2021-01-30,0f23e8,1,12,02,1,99,02,004,2,2020-06-04,2020-06-03,2020-06-04,2,1,23,2,1,2,2,98,98,98,98,1,1,98,98,98,98,99,1,1,2,97,3,1,El Salvador,El Salvador,2
