2021-01-30,04478d,2,4,02,2,02,02,004,2,2020-08-17,2020-08-03,2020-09-06,2,1,40,1,97,2,2,2,2,2,2,2,2,2,2,2,2,2,1,1,2,97,3,99,México,97,2
2021-01-30,057d33,1,12,02,2,02,02,004,2,2020-08-25,2020-08-24,2020-09-06,1,1,67,1,97,99,99,2,2,2,2,1,2,2,2,2,2,99,1,2,2,97,7,99,México,97,2
2021-01-30,0bc48b,2,4,02,2,32,02,004,2,2020-08-30,2020-08-30,2020-09-06,2,1,57,1,97,2,2,2,2,2,2,2,2,2,1,2,2,2,1,1,2,97,3,99,México,97,2
2021-01-30,00a83b,1,12,02,2,02,02,004,2,2020-08-31,2020-08-21,2020-09-06,1,1,96,1,97,2,2,2,2,2,2,2,2,2,2,2,2,2,1,1,2,97,3,99,México,97,2
2021-01-30,2a3ea9,2,4,02,2,09,02,004,2,2020-09-05,2020-08-29,2020-09-06,2,1,74,1,97,2,2,1,2,2,2,1,2,2,2,2,2,2,1,1,2,97,3,99,México,97,2
2021-01-30,3a84c9,1,4,02,2,30,02,004,2,2020-09-05,2020-08-31,2020-09-06,2,2,68,1,97,2,2,2,2,2,2,2,2,2,2,1,1,2,1,1,2,97,3,99,México,97,2
2021-01-30,42f3c6,2,12,02,1,02,02,004,2,2020-09-04,2020-09-02,2020-09-06,2,2,67,1,2,2,2,2,2,2,2,1,2,2,1,2,1,99,1,1,2,97,3,99,México,97,2
