2021-01-30,308dc4,2,4,02,1,10,02,004,2,2020-12-27,2020-12-13,2021-01-11,2,1,63,1,2,2,2,1,2,2,2,1,2,2,1,2,2,2,1,2,2,97,7,99,México,97,2
2021-01-30,3ab468,1,4,02,2,16,02,004,2,2020-12-27,2020-12-20,2021-01-11,1,2,66,1,97,2,2,2,2,2,2,2,2,2,1,2,1,2,1,1,2,97,3,99,México,97,2
2021-01-30,39416b,2,4,02,1,19,02,004,2,2020-12-28,2020-12-21,2021-01-11,2,1,63,1,2,2,2,1,2,2,2,1,2,2,1,2,2,2,2,97,1,1,3,99,México,97,2
2021-01-30,3f347f,1,12,02,2,20,02,004,2,2020-12-26,2020-12-20,2021-01-11,2,1,54,1,97,99,99,1,2,2,2,1,2,2,2,2,2,2,1,1,2,97,3,99,México,97,2
2021-01-30,25491f,2,4,02,1,02,02,004,1,2020-12-31,2020-12-25,2021-01-11,97,2,40,1,2,2,2,2,2,2,2,2,2,2,2,2,2,1,1,1,2,97,3,99,México,97,97
2021-01-30,3349c6,2,4,02,1,20,02,004,2,2020-12-31,2020-12-22,2021-01-11,2,1,68,1,2,2,2,2,2,2,2,1,2,2,2,2,2,2,1,1,2,97,3,99,México,97,2
2021-01-30,3313d6,2,4,02,2,18,02,004,2,2021-01-02,2020-12-24,2021-01-11,2,1,66,1,97,2,2,1,2,2,2,1,2,2,1,2,1,2,2,97,1,1,3,99,México,97,2
2021-01-30,20fd24,2,4,02,1,15,02,004,2,2021-01-02,2020-12-24,2021-01-11,2,1,72,1,2,2,2,2,2,2,2,2,2,2,2,2,2,2,2,97,1,1,3,99,México,97,2
2021-01-30,463b98,2,4,02,2,02,02,004,1,2021-01-04,2020-12-27,2021-01-11,97,2,63,1,97,2,2,1,2,2,2,1,2,2,2,2,2,2,1,1,2,97,3,99,México,97,97
2021-01-30,1ff393,1,12,02,1,14,02,004,2,2021-01-04,2020-12-29,2021-01-11,2,1,63,1,2,99,99,2,2,2,2,1,2,2,1,2,2,2,1,1,2,97,3,99,México,97,2
2021-01-30,3bdc03,2,4,02,2,11,02,004,2,2021-01-03,2020-12-24,2021-01-11,1,1,55,1,97,2,2,2,2,2,2,2,2,2,1,2,1,2,1,1,2,97,3,99,México,97,2
2021-01-30,373765,2,4,02,2,25,02,004,2,2021-01-05,2020-12-26,2021-01-11,2,1,70,1,97,2,2,2,2,2,2,2,2,2,2,2,2,2,2,97,1,1,3,99,México,97,2
2021-01-30,295f1e,1,12,02,2,25,02,004,2,2021-01-05,2020-12-26,2021-01-11,2,1,57,1,97,99,99,1,2,2,2,1,2,2,2,2,2,2,1,1,2,97,3,99,México,97,2
2021-01-30,3893a0,2,4,02,1,02,02,004,2,2021-01-08,2021-01-05,2021-01-11,2,1,43,1,2,2,2,2,2,2,1,2,2,2,2,2,1,1,2,97,1,1,3,99,México,97,2
2021-01-30,2c5ac9,2,4,02,2,16,02,004,2,2021-01-09,2021-01-09,2021-01-11,2,2,34,1,97,2,2,1,2,2,2,2,2,2,2,2,2,2,1,2,1,2,7,99,México,97,2
2021-01-30,2a0f93,2,4,02,2,02,02,004,2,2021-01-09,2020-12-26,2021-01-11,2,1,48,1,97,2,2,2,2,2,2,2,2,2,1,2,2,2,1,1,1,2,3,99,México,97,2
2021-01-30,2d3e8f,1,4,02,1,25,02,004,2,2021-01-10,2020-12-30,2021-01-11,1,2,59,1,2,2,2,2,2,1,2,1,2,2,1,2,2,2,1,1,2,97,3,99,México,97,2
2021-01-30,388853,2,4,02,1,14,02,004,2,2021-01-11,2021-01-07,2021-01-11,2,1,79,1,2,2,2,1,2,2,2,1,2,2,2,2,2,2,1,2,2,97,7,99,México,97,2
2021-01-30,2a6873,2,4,02,2,11,02,004,2,2021-01-11,2021-01-11,2021-01-11,2,1,85,1,97,2,2,2,2,2,2,1,2,2,2,2,2,2,1,2,2,97,7,99,México,97,2
2021-01-30,31fb2a,2,4,02,1,02,02,004,2,2021-01-09,2020-12-31,2021-01-11,2,1,78,1,2,2,2,1,2,2,2,1,2,1,1,2,2,2,1,2,2,97,7,99,México,97,2
2021-01-30,2666de,2,4,02,2,14,02,004,2,2021-01-11,2020-12-15,2021-01-11,2,1,61,1,97,2,2,2,2,2,2,2,2,2,2,2,2,2,2,97,1,1,3,99,México,97,2
2021-01-30,28d80d,2,4,02,2,02,02,004,2,2021-01-11,2021-01-08,2021-01-11,2,2,57,1,97,2,2,1,2,2,2,1,1,1,2,2,2,2,1,2,1,2,7,99,México,97,2
2021-01-30,40f9f2,1,12,02,2,30,02,004,2,2021-01-01,2020-12-24,2021-01-11,2,1,77,1,97,99,99,2,2,2,2,2,2,2,2,2,2,2,1,1,2,97,3,99,México,97,2
2021-01-30,2a3d19,1,12,02,1,02,02,004,2,2021-01-04,2020-12-26,2021-01-11,1,1,63,1,2,99,99,2,2,2,2,1,2,2,2,2,2,2,1,1,2,97,3,99,México,97,2
2021-01-30,1ebc3b,2,4,02,2,17,02,004,2,2021-01-11,2021-01-04,2021-01-11,1,1,61,1,97,2,2,1,2,2,1,2,1,2,2,2,2,2,1,1,2,97,3,99,México,97,2
2021-01-30,2f0aab,1,12,02,2,08,02,004,2,2021-01-08,2021-01-07,2021-01-11,2,1,31,1,97,99,99,98,98,98,98,98,98,98,98,98,98,99,1,2,2,97,7,99,México,97,2
2021-01-30,4294c7,1,12,02,2,02,02,004,2,2020-12-26,2020-12-12,2021-01-11,2,1,48,1,97,99,99,2,2,2,2,2,2,2,2,2,2,2,1,1,2,97,3,99,México,97,2
