2021-01-30,00667f,2,4,02,2,02,02,004,2,2020-04-27,2020-04-17,2020-05-17,2,1,42,1,97,2,2,1,2,2,2,1,2,2,1,2,2,99,1,1,2,97,3,99,México,97,2
2021-01-30,12fbc2,1,4,02,2,02,02,004,2,2020-04-27,2020-04-18,2020-05-17,1,1,56,1,97,2,2,2,2,2,2,1,2,2,1,2,1,99,1,1,2,97,3,99,México,97,2
2021-01-30,0f42c9,1,4,02,1,02,02,004,2,2020-05-02,2020-04-28,2020-05-17,1,1,69,1,2,2,2,1,2,2,2,1,2,2,1,2,2,99,1,1,2,97,3,99,México,97,2
2021-01-30,1a8e9f,2,4,02,2,30,02,004,2,2020-05-01,2020-04-18,2020-05-17,1,1,49,1,97,2,2,2,2,2,2,2,2,2,2,2,2,99,1,1,2,97,3,99,México,97,2
2021-01-30,097375,1,4,02,2,12,02,004,2,2020-05-03,2020-04-30,2020-05-17,1,2,59,1,97,2,2,1,2,2,2,2,2,2,2,2,2,99,1,1,2,97,3,99,México,97,2
2021-01-30,15bed8,1,4,02,1,02,02,004,2,2020-05-03,2020-05-03,2020-05-17,1,1,31,1,2,2,2,2,2,2,2,2,2,2,2,2,2,99,1,1,2,97,3,99,México,97,2
2021-01-30,092c71,2,12,02,1,20,02,004,2,2020-05-05,2020-04-30,2020-05-17,2,2,56,1,2,2,2,98,98,98,98,98,98,98,98,98,98,99,1,1,2,97,3,99,México,97,2
2021-01-30,181abb,2,4,02,2,30,02,004,2,2020-05-07,2020-05-05,2020-05-17,2,1,40,1,97,2,2,2,2,2,2,1,2,2,1,2,2,99,1,1,2,97,3,99,México,97,2
2021-01-30,14e1b2,2,4,02,1,26,02,004,2,2020-04-28,2020-04-24,2020-05-17,2,1,73,1,2,2,2,1,2,2,2,2,2,2,2,2,2,99,1,1,2,97,3,99,México,97,2
2021-01-30,051887,2,4,02,1,30,02,004,2,2020-05-09,2020-04-26,2020-05-17,2,1,89,1,2,2,2,2,2,2,2,1,2,2,2,2,2,99,1,1,2,97,3,99,México,97,2
2021-01-30,1a1fe9,1,12,02,2,16,02,004,2,2020-05-11,2020-05-07,2020-05-17,2,1,63,1,97,2,2,2,2,2,2,2,2,2,2,2,2,2,1,1,2,97,3,99,México,97,2
2021-01-30,1a2bf7,2,4,02,2,30,02,004,2,2020-05-10,2020-05-10,2020-05-17,1,1,38,1,97,2,2,2,2,2,2,2,2,2,2,2,2,99,1,1,2,97,3,99,México,97,2
2021-01-30,1824ec,1,4,02,2,16,02,004,2,2020-05-12,2020-05-05,2020-05-17,2,1,87,1,97,2,2,1,2,2,2,1,2,2,2,2,1,99,1,1,2,97,3,99,México,97,2
2021-01-30,000726,1,12,02,2,30,02,004,2,2020-05-13,2020-05-06,2020-05-17,2,1,58,1,97,2,2,2,2,2,2,2,2,2,2,2,2,2,1,1,2,97,3,99,México,97,2
2021-01-30,1cf08d,1,12,02,2,14,02,004,2,2020-05-13,2020-05-08,2020-05-17,2,2,82,1,97,2,2,1,2,2,2,1,2,2,2,2,2,2,1,2,2,97,7,99,México,97,2
2021-01-30,14ce95,1,12,02,2,02,02,004,2,2020-05-11,2020-05-04,2020-05-17,2,1,33,1,97,2,2,2,2,2,2,2,2,2,2,2,2,2,1,1,2,97,3,99,México,97,2
2021-01-30,072be6,2,4,02,2,25,02,004,2,2020-05-15,2020-05-10,2020-05-17,2,1,78,1,97,2,2,1,2,2,2,1,2,2,1,2,2,99,1,1,2,97,3,99,México,97,2
2021-01-30,11a6b8,2,12,02,2,26,02,004,2,2020-05-16,2020-05-15,2020-05-17,99,1,58,1,97,2,2,1,2,2,2,1,2,2,1,2,2,2,1,1,2,97,3,99,México,97,99
2021-01-30,027697,2,4,02,2,32,02,004,2,2020-05-16,2020-05-02,2020-05-17,2,1,70,1,97,2,2,1,2,2,2,1,2,2,2,2,2,99,1,2,2,97,7,99,México,97,2
2021-01-30,1af86e,2,4,02,2,25,02,004,2,2020-05-16,2020-05-10,2020-05-17,2,1,51,1,97,2,2,1,2,2,2,1,2,1,1,2,2,99,1,2,2,97,7,99,México,97,2
2021-01-30,180b2f,2,4,02,2,18,02,004,2,2020-05-16,2020-05-10,2020-05-17,2,1,41,1,97,2,2,2,2,2,2,1,2,2,2,2,2,99,1,1,2,97,3,99,México,97,2
2021-01-30,178fe6,2,4,02,2,09,02,004,2,2020-05-04,2020-04-24,2020-05-17,2,1,57,1,97,2,2,2,2,2,2,1,2,2,1,2,2,99,1,2,2,97,7,99,México,97,2
2021-01-30,0dff3c,2,4,02,2,16,02,004,2,2020-05-17,2020-05-14,2020-05-17,2,1,74,1,97,2,2,1,2,2,2,2,2,2,1,2,1,99,1,1,2,97,3,99,México,97,2
2021-01-30,09e0e9,2,4,02,2,02,02,004,2,2020-05-17,2020-05-09,2020-05-17,1,1,2,1,97,2,2,2,2,2,2,2,1,2,2,2,2,99,1,1,2,97,3,99,México,97,2
2021-01-30,1947c5,1,4,02,1,10,02,004,2,2020-05-11,2020-05-11,2020-05-17,2,2,78,1,2,2,2,2,2,2,2,1,2,2,2,2,2,99,2,97,2,97,6,99,México,97,2
2021-01-30,0f7b2f,1,4,02,1,14,02,004,2,2020-05-16,2020-05-16,2020-05-17,2,1,62,1,2,2,2,1,2,2,2,2,2,2,2,2,2,2,2,97,2,97,6,99,México,97,2
