2021-01-30,12a771,1,12,02,2,14,02,004,2,2020-06-25,2020-06-10,2020-07-14,2,1,57,1,97,2,2,2,2,2,2,2,2,2,2,2,2,99,1,1,2,97,3,99,México,97,2
2021-01-30,0c3366,2,4,02,1,14,02,004,2,2020-06-26,2020-06-12,2020-07-14,2,1,83,1,2,2,2,1,2,2,2,1,2,2,2,2,2,99,1,2,2,97,7,99,México,97,2
2021-01-30,058b96,2,4,02,2,14,02,004,2,2020-07-06,2020-06-23,2020-07-14,2,2,71,1,97,2,2,2,1,2,2,2,2,2,2,2,1,99,1,1,2,97,3,99,México,97,2
2021-01-30,1c2551,2,4,02,2,11,02,004,2,2020-07-06,2020-06-23,2020-07-14,2,2,73,1,97,2,2,1,2,2,2,1,1,2,2,1,2,99,1,1,2,97,3,99,México,97,2
2021-01-30,146f95,1,4,02,1,30,02,004,2,2020-07-06,2020-07-06,2020-07-14,2,2,55,1,2,2,2,1,2,2,1,1,2,2,2,1,2,99,1,2,2,97,7,99,México,97,2
2021-01-30,00633b,2,4,02,2,16,02,004,2,2020-07-08,2020-07-01,2020-07-14,2,1,72,1,97,2,2,1,1,2,2,1,2,2,2,2,1,99,1,1,2,97,3,99,México,97,2
2021-01-30,00b291,2,12,02,2,14,02,004,2,2020-07-07,2020-07-05,2020-07-14,2,2,81,1,97,2,2,2,2,2,2,1,2,2,2,2,2,99,1,1,2,97,3,99,México,97,2
2021-01-30,0234c0,1,4,02,1,32,02,004,2,2020-07-03,2020-07-03,2020-07-14,2,2,73,1,2,2,2,1,2,2,2,1,2,2,2,2,2,99,1,2,2,97,7,99,México,97,2
2021-01-30,1057d2,2,12,02,2,14,02,004,2,2020-07-10,2020-07-09,2020-07-14,2,2,80,1,97,2,2,2,2,2,2,2,2,2,2,2,2,99,1,1,2,97,3,99,México,97,2
2021-01-30,22b987,2,9,02,2,32,02,004,2,2020-06-26,2020-06-18,2020-07-14,1,1,68,1,97,2,2,2,2,2,2,2,2,2,2,2,2,2,1,1,2,97,3,99,México,97,1
