2021-01-30,3bac32,2,4,02,2,15,02,004,2,2020-09-04,2020-08-26,2020-09-25,2,1,37,1,97,2,2,2,2,2,2,2,2,2,2,2,2,2,1,1,2,97,3,99,México,97,1
2021-01-30,3edf1b,2,4,02,2,12,02,004,2,2020-09-10,2020-09-01,2020-09-25,2,1,58,1,97,2,2,1,2,2,2,2,2,2,2,2,2,2,1,1,2,97,3,99,México,97,2
2021-01-30,313357,2,4,02,2,02,02,004,2,2020-09-15,2020-09-14,2020-09-25,2,1,74,1,97,2,2,1,2,2,2,1,1,1,1,1,2,2,1,1,2,97,3,99,México,97,2
2021-01-30,381caa,2,4,02,2,09,02,004,2,2020-09-16,2020-09-02,2020-09-25,2,1,61,1,97,2,2,2,2,2,2,2,2,2,2,2,2,2,1,1,2,97,3,99,México,97,2
2021-01-30,282ddb,2,4,02,1,02,02,004,2,2020-09-24,2020-09-23,2020-09-25,2,1,18,1,2,2,2,2,2,2,2,2,1,2,1,2,2,2,1,4,2,97,6,99,México,97,2
2021-01-30,39e8eb,1,4,02,2,02,02,004,2,2020-09-25,2020-09-22,2020-09-25,2,1,47,1,97,2,2,2,2,2,2,2,2,2,2,2,1,2,1,4,2,97,6,99,México,97,2
2021-01-30,34fb51,2,4,02,1,09,02,004,2,2020-09-25,2020-09-20,2020-09-25,2,2,59,1,2,2,2,1,2,2,2,1,2,2,2,2,2,2,1,1,2,97,3,99,México,97,2
2021-01-30,3dc925,1,12,02,1,02,02,004,2,2020-09-22,2020-09-18,2020-09-25,1,1,86,1,2,99,99,1,2,2,2,1,2,2,2,2,2,2,1,1,2,97,3,99,México,97,2
