2021-01-30,44c98a,2,4,02,1,02,02,004,2,2020-10-28,2020-10-28,2020-11-24,2,2,45,1,2,2,2,1,2,2,2,2,2,2,2,2,2,2,1,1,2,97,3,99,México,97,2
2021-01-30,2ad16d,2,9,02,2,02,02,004,2,2020-11-10,2020-11-07,2020-11-24,2,1,52,1,97,2,2,2,2,1,2,1,2,2,2,2,2,1,1,1,2,97,3,99,México,97,1
2021-01-30,22d622,2,4,02,2,02,02,004,2,2020-11-22,2020-11-08,2020-11-24,2,1,38,1,97,2,2,2,2,2,2,2,2,2,1,2,2,2,1,1,2,97,3,99,México,97,2
2021-01-30,24a78e,2,4,02,2,07,02,004,2,2020-11-22,2020-11-15,2020-11-24,2,1,65,1,97,2,2,2,2,2,2,2,2,2,1,2,2,2,1,1,2,97,3,99,México,97,2
2021-01-30,22c326,2,4,02,2,25,02,004,2,2020-11-18,2020-11-17,2020-11-24,2,1,65,1,97,2,2,1,2,2,2,2,2,1,1,2,2,1,1,1,2,97,3,99,México,97,2
2021-01-30,3af9f5,2,4,02,1,21,02,004,2,2020-11-17,2020-11-14,2020-11-24,2,1,60,1,2,2,2,1,2,2,2,1,2,1,1,2,2,2,1,1,2,97,3,99,México,97,2
2021-01-30,412a75,2,4,02,2,10,02,004,2,2020-11-24,2020-11-21,2020-11-24,2,1,71,1,97,2,2,2,2,2,2,2,2,2,2,2,2,2,1,1,2,97,3,99,México,97,2
2021-01-30,a9dfcb,2,9,02,2,16,02,004,2,2020-11-01,2020-10-21,2020-11-24,1,1,57,1,97,2,2,1,2,2,2,1,2,2,2,2,2,2,1,1,2,97,3,99,México,97,1
