2021-01-30,3c8cff,1,4,02,1,02,02,004,2,2020-11-06,2020-10-31,2020-11-07,1,1,49,1,2,2,2,1,2,2,2,1,2,2,1,1,2,2,1,1,2,97,3,99,México,97,2
2021-01-30,3076d5,2,4,02,1,11,02,004,2,2020-11-04,2020-11-01,2020-11-07,2,1,51,1,2,2,2,1,2,2,2,1,2,2,1,1,2,2,1,1,2,97,3,99,México,97,2
2021-01-30,44c7eb,2,4,02,2,02,02,004,2,2020-11-04,2020-10-28,2020-11-07,1,1,49,1,97,2,2,1,2,2,2,1,2,2,1,2,2,1,1,1,2,97,3,99,México,97,2
