2021-01-30,345ffd,2,4,02,1,25,02,004,2,2020-11-02,2020-10-26,2020-11-13,2,1,50,1,2,2,2,2,2,2,2,2,2,2,1,2,2,2,1,1,2,97,3,99,México,97,2
2021-01-30,373903,2,4,02,2,02,02,004,2,2020-11-02,2020-10-26,2020-11-13,1,1,78,1,97,2,2,1,2,2,2,1,2,2,1,2,2,2,1,2,2,97,7,99,México,97,2
2021-01-30,44e88d,2,4,02,2,25,02,004,2,2020-11-04,2020-10-31,2020-11-13,2,1,67,1,97,2,2,2,2,2,2,1,2,2,2,2,2,2,1,1,2,97,3,99,México,97,2
2021-01-30,269240,2,4,02,1,17,02,004,2,2020-11-08,2020-10-28,2020-11-13,2,1,62,1,2,2,2,1,2,2,2,2,2,2,2,2,2,2,1,1,2,97,3,99,México,97,2
2021-01-30,387bbe,2,4,02,2,11,02,004,2,2020-11-08,2020-11-01,2020-11-13,2,1,82,1,97,2,2,1,2,2,2,1,1,2,2,2,2,2,1,1,2,97,3,99,México,97,2
2021-01-30,28bc36,1,12,02,1,02,02,004,2,2020-11-03,2020-11-01,2020-11-13,1,2,68,1,2,99,99,98,98,98,98,98,98,98,98,98,98,2,1,1,2,97,3,99,México,97,2
2021-01-30,40a89d,1,12,02,1,16,02,004,2,2020-11-08,2020-11-05,2020-11-13,1,1,59,1,2,99,99,1,2,1,2,1,2,2,2,2,2,2,1,1,2,97,3,99,México,97,2
2021-01-30,4367ba,1,12,02,2,02,02,004,2,2020-11-04,2020-10-30,2020-11-13,2,1,66,1,97,99,99,1,2,2,2,1,2,2,2,2,2,2,1,1,2,97,3,99,México,97,2
2021-01-30,2405c8,2,4,02,1,09,02,004,2,2020-11-13,2020-11-08,2020-11-13,2,2,49,1,2,2,2,2,2,2,2,2,2,2,2,2,2,2,1,1,2,97,3,99,México,97,2
