2021-01-30,1ec207,1,12,02,2,02,02,004,2,2020-11-18,2020-11-03,2020-12-04,1,1,62,1,97,99,99,1,2,2,2,1,2,2,2,2,2,2,1,1,2,97,3,99,México,97,2
2021-01-30,306ff9,2,4,02,2,02,02,004,2,2020-11-11,2020-10-31,2020-12-04,1,1,52,1,97,2,2,2,2,2,2,1,2,2,1,2,2,2,1,1,2,97,3,99,México,97,2
2021-01-30,3624bc,1,4,02,1,26,02,004,2,2020-11-22,2020-11-16,2020-12-04,1,1,74,1,2,2,2,2,2,2,2,2,2,2,2,2,2,2,1,1,2,97,3,99,México,97,2
2021-01-30,2d1854,2,4,02,1,30,02,004,2,2020-11-22,2020-11-15,2020-12-04,1,1,41,1,2,2,2,1,2,2,2,1,2,2,1,2,1,2,1,4,2,97,5,99,México,97,2
2021-01-30,2d35d2,2,4,02,2,16,02,004,2,2020-11-22,2020-11-15,2020-12-04,2,1,40,1,97,2,2,1,2,2,2,2,2,2,2,2,2,2,1,1,2,97,3,99,México,97,2
2021-01-30,22ca92,1,12,02,1,02,02,004,2,2020-11-22,2020-11-21,2020-12-04,2,1,60,1,2,99,99,2,2,2,2,1,2,1,2,2,2,2,1,1,2,97,3,99,México,97,2
2021-01-30,2bc956,1,12,02,1,30,02,004,2,2020-11-25,2020-11-20,2020-12-04,2,1,68,1,2,99,99,2,2,2,2,2,2,2,2,2,2,2,1,2,2,97,7,99,México,97,2
2021-01-30,38efe5,1,4,02,1,14,02,004,2,2020-11-28,2020-11-24,2020-12-04,2,1,68,1,2,2,2,1,2,2,2,1,2,1,2,2,2,2,1,1,2,97,3,99,México,97,2
2021-01-30,241c4c,2,4,02,2,21,02,004,2,2020-11-28,2020-11-23,2020-12-04,1,1,35,1,97,2,2,2,2,2,2,2,2,2,2,2,2,2,1,1,2,97,3,99,México,97,2
2021-01-30,40a740,2,4,02,1,25,02,004,2,2020-11-28,2020-11-24,2020-12-04,2,1,66,1,2,2,2,1,2,2,2,2,2,2,1,2,2,2,1,1,2,97,3,99,México,97,2
2021-01-30,44ee5e,2,4,02,2,02,02,004,2,2020-11-30,2020-11-23,2020-12-04,2,1,61,1,97,2,2,1,2,2,2,1,2,2,2,2,1,2,1,1,2,97,3,99,México,97,2
2021-01-30,41ecfb,2,4,02,2,02,02,004,2,2020-11-30,2020-11-24,2020-12-04,2,1,78,1,97,2,2,2,2,2,2,1,2,2,2,1,2,2,1,1,2,97,3,99,México,97,2
2021-01-30,20efa6,2,4,02,1,08,02,004,2,2020-12-01,2020-11-20,2020-12-04,2,1,73,1,2,2,2,2,2,2,2,1,2,2,2,2,2,2,1,1,2,97,3,99,México,97,2
2021-01-30,3bdc75,1,12,02,1,25,02,004,2,2020-11-29,2020-11-24,2020-12-04,1,1,36,1,2,99,99,1,2,2,2,1,2,2,2,2,2,2,1,1,2,97,3,99,México,97,2
2021-01-30,379408,2,4,02,1,14,02,004,2,2020-12-02,2020-11-27,2020-12-04,2,2,79,1,2,2,2,1,2,2,2,1,2,1,2,1,2,2,1,1,2,97,3,99,México,97,2
2021-01-30,391ac2,2,4,02,2,02,02,004,2,2020-12-02,2020-11-18,2020-12-04,2,1,59,1,97,2,2,1,2,2,2,2,2,2,2,2,2,2,1,1,2,97,3,99,México,97,2
2021-01-30,22c213,2,4,02,2,16,02,004,2,2020-12-02,2020-11-29,2020-12-04,2,1,72,1,97,2,2,1,2,2,2,1,2,2,2,2,2,2,1,1,2,97,3,99,México,97,2
2021-01-30,2ba63d,1,12,02,1,12,02,004,2,2020-11-29,2020-11-21,2020-12-04,1,1,65,1,2,99,99,1,1,2,2,1,1,2,1,2,98,99,1,2,2,97,7,99,México,97,2
2021-01-30,362f01,1,12,02,2,11,02,004,2,2020-12-02,2020-11-27,2020-12-04,2,1,74,1,97,99,99,1,2,2,2,1,2,2,2,2,2,2,1,1,2,97,3,99,México,97,2
2021-01-30,229cd4,2,4,02,1,02,02,004,2,2020-12-04,2020-11-27,2020-12-04,2,1,55,1,2,2,2,1,2,2,2,1,2,2,2,2,2,2,1,1,2,97,3,99,México,97,2
2021-01-30,41ad19,2,4,02,2,32,02,004,2,2020-12-03,2020-11-29,2020-12-04,2,1,84,1,97,2,2,1,2,2,2,1,2,1,2,1,2,2,1,4,2,97,6,99,México,97,2
2021-01-30,a7779e,2,9,02,2,02,02,004,2,2020-10-23,2020-10-09,2020-12-04,1,1,77,1,97,2,2,1,2,2,2,2,2,2,2,2,2,2,1,1,2,97,3,99,México,97,1
