2021-01-30,041486,1,12,02,2,12,02,004,2,2020-08-11,2020-08-03,2020-08-27,2,2,24,1,97,2,2,2,2,2,2,2,1,2,2,2,2,1,1,2,2,97,7,99,México,97,2
2021-01-30,03969b,1,12,02,2,18,02,004,2,2020-08-12,2020-08-05,2020-08-27,2,1,70,1,97,2,2,2,2,2,2,2,2,2,2,2,2,2,1,1,2,97,3,99,México,97,2
2021-01-30,1d9e66,2,4,02,1,09,02,004,2,2020-08-18,2020-08-04,2020-08-27,2,1,74,1,2,2,2,2,2,2,2,2,2,2,2,2,2,2,1,4,2,97,6,99,México,97,2
2021-01-30,182699,1,12,02,2,02,02,004,2,2020-08-24,2020-08-17,2020-08-27,2,1,88,1,97,99,99,2,2,2,2,2,2,2,2,2,2,99,1,2,2,97,7,99,México,97,2
2021-01-30,139e52,2,4,02,2,26,02,004,2,2020-08-26,2020-08-22,2020-08-27,2,2,50,1,97,2,2,1,2,2,2,1,2,2,2,1,2,2,1,2,2,97,7,99,México,97,2
2021-01-30,140f2e,1,4,02,1,12,02,004,2,2020-08-26,2020-08-26,2020-08-27,2,2,72,1,2,2,2,2,2,2,2,2,2,2,2,2,2,2,1,2,2,97,7,99,México,97,2
2021-01-30,20d17d,2,9,02,1,02,02,004,2,2020-07-26,2020-07-16,2020-08-27,2,1,57,1,2,2,2,2,2,2,2,2,2,2,2,2,2,2,1,1,2,97,3,99,México,97,2
