2021-01-30,1ca8b6,1,12,02,1,12,02,004,2,2020-05-25,2020-05-21,2020-06-16,2,1,66,1,2,2,2,1,2,2,2,2,2,2,2,2,2,2,1,1,2,97,3,99,México,97,2
2021-01-30,14649f,2,4,02,1,12,02,004,2,2020-06-06,2020-05-22,2020-06-16,1,2,80,1,2,2,2,1,2,2,2,1,1,2,2,2,2,99,1,1,2,97,3,99,México,97,2
2021-01-30,1a45ab,1,12,02,2,09,02,004,2,2020-06-01,2020-05-25,2020-06-16,2,1,42,1,97,2,2,2,2,2,2,1,2,2,1,2,2,2,1,2,2,97,7,99,México,97,2
2021-01-30,14257a,1,4,02,2,25,02,004,2,2020-06-14,2020-06-07,2020-06-16,1,1,45,1,97,2,2,1,2,2,2,2,2,2,2,2,2,1,1,1,2,97,3,99,México,97,2
2021-01-30,19ea8f,1,4,02,2,02,02,004,2,2020-06-12,2020-06-12,2020-06-16,2,2,6,1,97,2,2,2,2,2,2,2,2,2,2,2,2,99,1,2,2,97,7,99,México,97,2
