2021-01-30,12e317,2,4,02,2,15,02,004,2,2020-09-01,2020-08-24,2020-09-03,2,1,45,1,97,2,2,1,2,2,2,1,2,2,1,2,2,2,1,1,2,97,3,99,México,97,2
2021-01-30,1941a3,1,4,02,2,02,02,004,2,2020-09-03,2020-08-28,2020-09-03,2,1,49,1,97,2,2,2,2,1,2,2,2,2,2,2,2,2,1,2,2,97,7,99,México,97,2
2021-01-30,0f78c9,2,4,02,1,04,02,004,2,2020-08-31,2020-08-29,2020-09-03,2,2,85,1,2,2,2,2,2,2,2,1,1,1,2,2,2,2,1,1,2,97,3,99,México,97,2
2021-01-30,07088d,1,4,02,2,10,02,004,2,2020-09-02,2020-09-01,2020-09-03,2,1,58,1,97,2,2,1,2,2,2,2,2,2,2,1,2,2,1,1,2,97,3,99,México,97,2
2021-01-30,2e6d84,2,9,02,2,25,02,004,2,2020-08-22,2020-08-20,2020-09-03,1,1,82,1,97,2,2,2,2,2,2,2,2,2,2,2,2,2,1,1,2,97,3,99,México,97,1
