2021-01-30,1b5763,2,4,02,2,30,02,004,2,2020-08-23,2020-08-16,2020-09-28,2,1,49,1,97,2,2,1,2,2,2,2,2,2,2,2,2,1,1,1,2,97,3,99,México,97,2
2021-01-30,22ff9a,2,9,02,1,02,02,004,2,2020-08-30,2020-08-17,2020-09-28,2,2,68,1,2,2,2,2,2,2,2,2,2,2,2,2,2,2,1,1,2,97,3,99,México,97,1
2021-01-30,2b5f1d,2,4,02,2,07,02,004,2,2020-09-23,2020-09-20,2020-09-28,2,1,57,1,97,2,2,1,2,2,2,1,2,2,2,1,1,1,1,1,2,97,3,99,México,97,2
2021-01-30,408862,2,4,02,1,30,02,004,2,2020-09-26,2020-09-15,2020-09-28,2,1,49,1,2,2,2,1,2,2,2,1,2,2,1,1,2,2,1,1,2,97,3,99,México,97,2
