2021-01-30,1abfd3,1,4,02,2,09,02,004,2,2020-04-17,2020-04-14,2020-05-05,1,1,40,1,97,2,2,2,2,2,2,2,2,2,2,2,2,99,1,1,2,97,3,99,México,97,2
2021-01-30,0d8d34,2,4,02,2,06,02,004,2,2020-04-21,2020-04-16,2020-05-05,2,1,55,1,97,2,2,2,2,1,2,2,2,2,2,2,2,99,1,2,2,97,7,99,México,97,2
2021-01-30,07045c,1,4,02,2,02,02,004,2,2020-04-21,2020-04-08,2020-05-05,2,1,55,1,97,2,2,1,2,2,2,2,2,2,2,2,2,99,2,97,2,97,6,99,México,97,2
2021-01-30,153a35,2,4,02,2,09,02,004,2,2020-04-22,2020-04-14,2020-05-05,1,1,40,1,97,2,2,2,2,2,2,2,2,2,2,2,1,99,1,1,2,97,3,99,México,97,2
2021-01-30,14e88b,1,4,02,2,29,02,004,2,2020-04-25,2020-04-17,2020-05-05,99,2,58,1,97,2,2,2,2,2,2,2,2,2,2,2,2,99,1,1,2,97,3,99,México,97,99
2021-01-30,0e74d2,2,4,02,2,02,02,004,2,2020-04-26,2020-04-22,2020-05-05,2,1,56,1,97,2,2,2,2,2,2,2,2,2,2,2,2,99,1,4,2,97,5,99,México,97,2
2021-01-30,16ec72,1,12,02,2,02,02,004,2,2020-04-24,2020-04-20,2020-05-05,2,1,83,1,97,2,2,2,2,2,2,2,2,2,2,2,2,2,1,1,2,97,3,99,México,97,2
2021-01-30,054f8e,2,4,02,2,02,02,004,2,2020-04-19,2020-04-19,2020-05-05,2,1,46,1,97,2,2,2,2,2,2,2,2,2,1,2,1,99,1,1,2,97,3,99,México,97,2
2021-01-30,136902,1,4,02,2,09,02,004,2,2020-05-01,2020-04-22,2020-05-05,2,1,39,1,97,2,2,2,2,2,2,2,2,2,2,2,2,99,1,2,2,97,7,99,México,97,2
2021-01-30,02c2e7,1,12,02,2,02,02,004,2,2020-04-26,2020-04-20,2020-05-05,2,1,77,1,97,2,2,2,2,2,2,2,2,2,2,2,2,2,1,1,2,97,3,99,México,97,2
2021-01-30,065aef,1,12,02,2,02,02,004,2,2020-04-28,2020-04-21,2020-05-05,2,1,84,1,97,2,2,2,2,2,2,1,2,2,2,2,2,99,1,1,2,97,3,99,México,97,2
2021-01-30,04f951,1,12,02,1,26,02,004,2,2020-04-28,2020-04-24,2020-05-05,2,1,46,1,2,2,2,2,2,1,2,2,2,2,2,2,2,99,1,1,2,97,3,99,México,97,2
2021-01-30,16fbbb,2,4,02,1,11,02,004,2,2020-05-02,2020-04-25,2020-05-05,2,1,81,1,2,2,2,1,2,2,2,1,2,2,2,2,2,99,1,1,2,97,3,99,México,97,2
2021-01-30,178d5b,1,12,02,2,02,02,004,2,2020-05-01,2020-04-25,2020-05-05,1,1,72,1,97,2,2,2,2,2,2,2,2,2,2,2,2,2,1,1,2,97,3,99,México,97,2
2021-01-30,16fb45,1,12,02,2,32,02,004,2,2020-05-02,2020-04-29,2020-05-05,2,1,67,1,97,2,2,1,2,2,2,2,2,2,2,2,2,2,1,1,2,97,3,99,México,97,2
2021-01-30,0ddf4a,2,4,02,1,02,02,004,2,2020-05-03,2020-04-28,2020-05-05,1,1,51,1,2,2,2,1,2,2,2,1,2,2,2,1,2,99,1,1,2,97,3,99,México,97,2
2021-01-30,1902ad,1,12,02,1,02,02,004,2,2020-05-04,2020-05-02,2020-05-05,2,1,61,1,2,2,2,2,2,2,2,1,2,2,2,2,2,2,1,1,2,97,3,99,México,97,2
2021-01-30,170b4f,1,12,02,2,02,02,004,2,2020-05-04,2020-05-01,2020-05-05,2,1,90,1,97,2,2,98,98,98,98,98,98,98,98,98,98,2,1,1,2,97,3,99,México,97,2
2021-01-30,044e5c,2,4,02,1,11,02,004,2,2020-05-04,2020-04-29,2020-05-05,2,1,76,1,2,2,2,1,2,2,2,1,2,2,2,2,2,99,1,1,2,97,3,99,México,97,2
2021-01-30,022dab,1,4,02,2,25,02,004,2,2020-05-03,2020-05-01,2020-05-05,2,2,68,1,97,2,2,1,2,2,2,1,2,2,2,2,2,99,2,97,2,97,6,99,México,97,2
2021-01-30,115168,1,4,02,1,07,02,004,2,2020-05-02,2020-04-29,2020-05-05,2,2,48,1,2,2,2,2,2,2,2,2,2,2,1,2,2,99,2,97,2,97,6,99,México,97,2
2021-01-30,1400f2,2,4,02,2,02,02,004,2,2020-05-04,2020-05-04,2020-05-05,2,1,53,1,97,2,2,2,2,2,2,1,2,2,2,2,2,99,2,97,2,97,6,99,México,97,2
2021-01-30,09d4b0,2,4,02,2,07,02,004,2,2020-04-29,2020-04-10,2020-05-05,1,1,64,1,97,2,2,2,2,2,2,2,2,2,2,2,2,2,2,97,2,97,6,99,México,97,2
2021-01-30,0b5cf8,2,4,02,2,05,02,004,2,2020-05-05,2020-05-05,2020-05-05,2,2,77,1,97,2,2,2,2,2,2,2,2,2,2,2,2,99,2,97,2,97,6,99,México,97,2
2021-01-30,19ac25,2,4,02,2,10,02,004,2,2020-05-02,2020-04-25,2020-05-05,2,2,70,1,97,2,2,1,2,2,2,1,1,2,2,2,2,99,2,97,2,97,6,99,México,97,2
2021-01-30,036034,2,4,02,1,30,02,004,2,2020-05-05,2020-05-04,2020-05-05,2,1,77,1,2,2,2,1,2,2,2,1,2,2,2,2,2,99,2,97,2,97,6,99,México,97,2
2021-01-30,17b367,2,4,02,2,25,02,004,2,2020-05-05,2020-05-05,2020-05-05,2,2,81,1,97,2,2,1,2,2,2,1,2,2,2,1,2,99,2,97,2,97,6,99,México,97,2
2021-01-30,1a42db,2,4,02,2,20,02,004,2,2020-04-30,2020-04-30,2020-05-05,2,1,71,1,97,2,2,1,2,2,2,2,2,2,2,2,2,99,2,97,2,97,6,99,México,97,2
2021-01-30,1deb6f,2,4,02,2,16,02,004,2,2020-05-05,2020-04-30,2020-05-05,2,1,43,1,97,2,2,2,2,2,2,2,2,2,2,2,2,99,2,97,2,97,6,99,México,97,2
2021-01-30,0c7a13,2,4,02,1,16,02,004,2,2020-05-02,2020-04-25,2020-05-05,2,1,76,1,2,2,2,1,2,2,2,1,1,2,2,2,2,99,1,1,2,97,3,99,México,97,2
2021-01-30,093982,2,4,02,2,09,02,004,2,2020-05-03,2020-04-26,2020-05-05,2,1,60,1,97,2,2,1,2,2,2,2,2,2,2,2,2,99,2,97,2,97,6,99,México,97,2
2021-01-30,06a267,2,4,02,2,99,02,004,2,2020-05-04,2020-04-27,2020-05-05,2,1,42,2,97,2,2,1,2,2,2,2,2,2,2,2,2,99,2,97,2,97,6,99,El Salvador,97,2
2021-01-30,13a35c,2,4,02,1,25,02,004,2,2020-05-05,2020-05-05,2020-05-05,2,2,76,1,2,2,2,1,2,2,2,1,1,2,2,1,2,99,2,97,2,97,6,99,México,97,2
2021-01-30,01864c,2,4,02,2,25,02,004,2,2020-05-03,2020-04-28,2020-05-05,2,1,46,1,97,2,2,1,2,2,2,1,2,2,2,2,2,99,2,97,2,97,6,99,México,97,2
2021-01-30,14c1f9,2,4,02,1,02,02,004,2,2020-05-02,2020-04-25,2020-05-05,2,1,75,1,2,2,2,1,2,2,2,1,1,2,2,2,2,99,1,1,2,97,3,99,México,97,2
2021-01-30,0f4fc8,2,4,02,1,26,02,004,2,2020-05-04,2020-04-27,2020-05-05,1,1,35,1,2,2,2,2,2,2,2,1,2,2,2,2,2,99,1,1,2,97,3,99,México,97,2
2021-01-30,0f90b3,2,4,02,2,25,02,004,2,2020-05-03,2020-04-28,2020-05-05,2,1,46,1,97,2,2,1,2,2,2,1,2,2,2,2,2,99,1,1,2,97,3,99,México,97,2
2021-01-30,2f92f8,1,4,02,2,07,02,004,2,2020-05-04,2020-05-01,2020-05-05,2,1,34,1,97,2,2,2,2,2,2,1,2,2,2,2,2,2,2,97,2,97,6,99,México,97,2
