2021-01-30,2191ae,2,4,02,2,02,02,004,2,2020-10-12,2020-10-05,2020-10-29,2,1,57,1,97,2,2,1,2,2,2,1,1,2,1,2,2,2,1,1,2,97,3,99,México,97,2
2021-01-30,23be2f,2,4,02,1,11,02,004,2,2020-10-21,2020-10-11,2020-10-29,2,1,61,1,2,2,2,2,2,2,2,2,2,2,2,2,2,2,1,1,2,97,3,99,México,97,2
2021-01-30,4380e9,1,4,02,2,30,02,004,2,2020-10-16,2020-10-16,2020-10-29,1,2,55,1,97,2,2,1,2,2,2,1,1,2,1,2,2,1,1,4,2,97,6,99,México,97,2
2021-01-30,2816c6,1,12,02,2,14,02,004,2,2020-10-18,2020-10-12,2020-10-29,1,1,69,1,97,2,2,2,2,2,2,1,2,2,2,2,1,2,1,1,2,97,3,99,México,97,2
2021-01-30,3205e3,2,4,02,1,25,02,004,2,2020-10-23,2020-10-18,2020-10-29,1,1,61,1,2,2,2,1,2,2,2,1,1,2,1,2,2,2,1,2,2,97,7,99,México,97,2
2021-01-30,263127,2,4,02,2,30,02,004,2,2020-10-29,2020-10-29,2020-10-29,2,1,70,1,97,2,2,1,2,2,2,2,2,2,2,2,2,2,1,1,2,97,3,99,México,97,2
2021-01-30,2d491c,2,9,02,2,14,02,004,2,2020-09-28,2020-09-26,2020-10-29,1,1,77,1,97,2,2,1,2,2,2,1,2,1,2,2,2,1,1,1,2,97,3,99,México,97,1
