2021-01-30,129e27,2,4,02,2,12,02,004,2,2020-04-14,2020-04-07,2020-05-07,1,1,43,1,97,2,2,2,2,2,2,2,2,2,1,2,2,99,1,1,2,97,3,99,México,97,2
2021-01-30,12171b,1,12,02,2,26,02,004,2,2020-04-21,2020-04-14,2020-05-07,2,1,43,1,97,2,2,2,2,2,2,2,2,2,2,2,2,99,1,1,2,97,3,99,México,97,2
2021-01-30,05fb33,1,4,02,1,29,02,004,2,2020-04-22,2020-04-15,2020-05-07,1,1,78,1,2,2,2,2,2,2,2,1,2,2,2,2,2,2,2,97,2,97,6,99,México,97,2
2021-01-30,038527,2,4,02,2,09,02,004,2,2020-04-25,2020-04-21,2020-05-07,1,1,60,1,97,2,2,2,2,2,2,2,1,2,2,2,2,2,1,4,2,97,5,99,México,97,2
2021-01-30,17e4b6,2,4,02,1,30,02,004,2,2020-04-23,2020-04-23,2020-05-07,2,1,47,1,2,2,2,2,2,2,2,2,2,2,2,2,2,99,1,4,2,97,5,99,México,97,2
2021-01-30,044605,2,4,02,1,12,02,004,2,2020-05-02,2020-04-23,2020-05-07,2,1,62,1,2,2,2,1,2,2,2,1,2,2,2,2,2,99,1,1,2,97,3,99,México,97,2
2021-01-30,0e0f7d,1,4,02,2,02,02,004,2,2020-04-26,2020-04-26,2020-05-07,2,2,3,1,97,2,2,2,2,2,2,2,2,2,2,2,2,99,1,2,2,97,7,99,México,97,2
2021-01-30,09ec0e,2,4,02,2,14,02,004,2,2020-04-29,2020-04-21,2020-05-07,1,1,56,1,97,2,2,2,2,2,2,2,2,2,2,2,2,99,1,1,2,97,3,99,México,97,2
2021-01-30,14dd8f,1,4,02,1,32,02,004,2,2020-04-28,2020-04-20,2020-05-07,2,2,74,1,2,2,2,1,1,2,2,1,2,2,2,2,1,99,1,1,2,97,3,99,México,97,2
2021-01-30,07b46f,2,4,02,2,13,02,004,2,2020-04-29,2020-04-19,2020-05-07,2,1,48,1,97,2,2,2,2,2,2,2,2,2,2,2,2,99,1,1,2,97,3,99,México,97,2
2021-01-30,1b2229,1,4,02,2,18,02,004,2,2020-04-28,2020-04-23,2020-05-07,1,1,54,1,97,2,2,1,2,2,2,2,2,2,2,2,2,99,1,1,2,97,3,99,México,97,2
2021-01-30,02ec55,1,4,02,2,30,02,004,2,2020-04-29,2020-04-22,2020-05-07,1,1,47,1,97,2,2,1,2,2,2,1,2,2,1,2,2,1,1,2,2,97,7,99,México,97,2
2021-01-30,09e6c0,1,12,02,2,25,02,004,2,2020-04-29,2020-04-22,2020-05-07,2,1,80,1,97,2,2,2,2,2,2,2,2,2,1,2,2,2,1,1,2,97,3,99,México,97,2
2021-01-30,17f2c6,1,12,02,2,02,02,004,2,2020-04-30,2020-04-24,2020-05-07,2,1,61,1,97,2,2,1,2,2,2,1,2,2,2,2,2,2,1,2,2,97,7,99,México,97,2
2021-01-30,0571f3,2,4,25,2,25,02,004,2,2020-04-27,2020-04-27,2020-05-07,2,1,43,1,97,2,2,2,2,2,2,2,2,2,1,2,1,99,1,1,2,97,3,99,México,97,2
2021-01-30,0a6f4d,1,12,02,2,02,02,004,2,2020-05-03,2020-04-27,2020-05-07,1,1,68,1,97,2,2,2,2,2,2,2,2,2,2,2,2,2,1,2,2,97,7,99,México,97,2
2021-01-30,134bec,1,4,02,2,25,02,004,2,2020-05-02,2020-04-26,2020-05-07,1,2,69,1,97,2,2,98,98,98,98,98,98,98,2,98,98,99,1,1,2,97,3,99,México,97,2
2021-01-30,0a1aad,1,4,02,1,02,02,004,2,2020-05-02,2020-04-29,2020-05-07,2,2,78,1,2,2,2,1,2,2,2,1,2,2,2,2,2,99,1,1,2,97,3,99,México,97,2
2021-01-30,0f96f3,2,4,02,1,09,02,004,2,2020-05-03,2020-04-21,2020-05-07,2,2,58,1,2,2,2,1,2,2,2,1,2,2,2,2,1,99,1,1,2,97,3,99,México,97,2
2021-01-30,0edfd9,2,4,02,2,02,02,004,2,2020-05-04,2020-05-04,2020-05-07,2,2,0,1,97,2,2,2,2,2,2,2,1,2,2,2,2,99,1,1,2,97,3,99,México,97,1
2021-01-30,10dbe8,1,4,02,1,14,02,004,2,2020-05-04,2020-05-01,2020-05-07,1,1,26,1,2,2,2,1,2,2,2,1,2,2,1,2,2,99,1,1,2,97,3,99,México,97,2
2021-01-30,11d2a7,1,4,02,2,11,02,004,2,2020-05-03,2020-05-03,2020-05-07,2,1,81,1,97,2,2,1,2,2,2,1,2,2,2,2,2,99,2,97,2,97,6,99,México,97,2
2021-01-30,0004ce,2,4,02,1,15,02,004,2,2020-05-04,2020-04-28,2020-05-07,2,1,50,1,2,2,2,1,2,2,2,1,2,2,2,2,2,99,1,1,2,97,3,99,México,97,2
2021-01-30,1e657d,2,12,02,1,12,02,004,2,2020-05-06,2020-04-28,2020-05-07,1,1,64,1,2,2,2,1,2,2,2,2,2,2,2,2,2,2,1,1,2,97,3,99,México,97,2
2021-01-30,1b4992,2,4,02,2,14,02,004,2,2020-05-02,2020-05-02,2020-05-07,2,1,51,1,97,2,2,2,2,2,1,2,2,2,2,2,2,99,1,1,2,97,3,99,México,97,2
2021-01-30,03a081,1,12,02,2,30,02,004,2,2020-05-07,2020-05-07,2020-05-07,1,1,66,1,97,2,2,1,1,2,1,2,2,2,2,2,1,2,1,1,2,97,3,99,México,97,2
2021-01-30,06fbad,2,4,02,1,02,02,004,2,2020-05-07,2020-04-25,2020-05-07,2,1,58,1,2,2,2,1,2,2,2,1,2,2,1,2,2,99,1,1,2,97,3,99,México,97,2
2021-01-30,01e9ec,1,4,02,1,11,02,004,2,2020-05-07,2020-05-07,2020-05-07,2,2,65,1,2,2,2,2,2,2,2,2,2,2,2,2,2,99,2,97,2,97,6,99,México,97,2
2021-01-30,14acf5,1,4,02,2,16,02,004,2,2020-05-07,2020-04-30,2020-05-07,2,2,81,1,97,2,2,2,2,2,2,1,2,2,2,2,2,99,1,1,2,97,3,99,México,97,2
2021-01-30,14409e,2,4,02,2,15,02,004,2,2020-05-05,2020-04-28,2020-05-07,2,1,37,1,97,2,2,2,2,2,2,2,2,2,2,2,2,99,2,97,2,97,6,99,México,97,2
2021-01-30,1a3bba,2,4,02,2,25,02,004,2,2020-05-06,2020-05-06,2020-05-07,2,1,27,1,97,2,2,1,2,2,2,2,2,2,2,2,2,99,2,97,2,97,6,99,México,97,2
2021-01-30,0db262,2,4,02,1,02,02,004,2,2020-05-07,2020-05-01,2020-05-07,2,1,48,1,2,2,2,2,2,2,2,2,2,2,2,2,2,99,2,97,2,97,6,99,México,97,2
2021-01-30,012662,2,4,02,2,02,02,004,2,2020-05-06,2020-05-03,2020-05-07,2,1,63,1,97,2,2,1,2,2,2,2,2,2,2,2,2,99,1,2,2,97,7,99,México,97,2
2021-01-30,18bab2,2,4,02,1,09,02,004,2,2020-06-03,2020-05-01,2020-05-07,99,2,58,1,2,2,2,1,2,2,2,1,2,2,2,2,2,99,2,97,2,97,6,99,México,97,99
2021-01-30,0012a8,2,4,02,2,02,02,004,2,2020-05-04,2020-04-29,2020-05-07,99,2,29,1,97,2,2,2,2,2,2,2,2,2,2,2,2,1,2,97,2,97,6,99,México,97,99
