2021-01-30,1d4dcd,1,12,02,1,02,02,004,2,2020-06-23,2020-06-20,2020-07-13,2,1,76,1,2,2,2,1,2,2,2,1,2,2,1,2,2,2,1,1,2,97,3,99,México,97,2
2021-01-30,0a054f,2,4,02,2,26,02,004,2,2020-06-30,2020-06-21,2020-07-13,1,1,38,1,97,2,2,2,2,2,2,2,2,2,2,2,2,99,1,1,2,97,3,99,México,97,2
2021-01-30,167e56,2,4,02,1,21,02,004,2,2020-07-02,2020-06-26,2020-07-13,1,1,47,1,2,2,2,2,2,2,2,1,1,2,2,2,2,99,1,1,2,97,3,99,México,97,2
2021-01-30,17509e,1,12,02,2,25,02,004,2,2020-07-06,2020-06-24,2020-07-13,2,1,52,1,97,99,99,2,2,2,2,1,2,2,2,2,2,2,1,1,2,97,3,99,México,97,2
2021-01-30,0892c3,2,4,02,1,11,02,004,2,2020-07-07,2020-07-03,2020-07-13,1,2,10,1,2,2,2,2,2,2,2,2,2,2,2,2,2,2,1,2,2,97,7,99,México,97,2
