2021-01-30,116af6,1,4,02,2,26,02,004,2,2020-04-29,2020-04-19,2020-06-01,1,1,42,1,97,2,2,2,2,2,2,2,2,2,2,2,2,1,1,2,2,97,7,99,México,97,1
2021-01-30,1e6bc7,1,12,02,2,99,02,004,2,2020-05-14,2020-05-08,2020-06-01,2,1,55,2,97,2,2,2,2,2,2,1,2,2,2,2,2,2,1,1,2,97,3,1,Haití,Haití,2
2021-01-30,1deea8,2,4,02,2,30,02,004,2,2020-05-15,2020-05-08,2020-06-01,1,1,51,1,97,2,2,2,2,2,2,2,2,2,1,2,2,99,1,1,2,97,3,99,México,97,2
2021-01-30,00015a,2,4,02,1,11,02,004,2,2020-05-18,2020-05-15,2020-06-01,1,2,71,1,2,2,2,2,2,2,2,2,2,2,2,2,2,99,1,1,2,97,3,99,México,97,2
2021-01-30,042637,1,12,02,1,30,02,004,2,2020-05-17,2020-05-10,2020-06-01,2,1,73,1,2,2,2,2,2,2,2,2,2,2,2,2,2,2,1,1,2,97,3,99,México,97,2
2021-01-30,088b08,1,12,02,2,09,02,004,2,2020-05-18,2020-05-11,2020-06-01,2,1,61,1,97,2,2,1,2,2,2,2,2,2,2,2,2,2,1,1,2,97,3,99,México,97,2
2021-01-30,1cce2d,2,4,02,2,12,02,004,2,2020-05-19,2020-05-11,2020-06-01,1,1,49,1,97,2,2,2,2,2,2,2,2,2,2,2,2,99,1,1,2,97,3,99,México,97,2
2021-01-30,1359a6,2,4,02,1,30,02,004,2,2020-05-20,2020-05-10,2020-06-01,1,1,52,1,2,2,2,2,2,2,2,2,1,2,1,2,1,99,1,1,2,97,3,99,México,97,2
2021-01-30,1701ce,1,4,02,1,02,02,004,2,2020-05-19,2020-05-15,2020-06-01,1,2,51,1,2,2,2,2,2,2,2,2,2,2,2,2,2,99,1,1,2,97,3,99,México,97,2
2021-01-30,13feb9,2,4,02,2,26,02,004,2,2020-05-14,2020-05-14,2020-06-01,2,2,68,1,97,2,2,1,2,2,2,1,2,2,2,2,2,2,1,1,2,97,3,99,México,97,2
2021-01-30,1de772,1,12,02,1,02,02,004,2,2020-05-24,2020-05-19,2020-06-01,2,1,57,1,2,2,2,2,2,2,2,1,2,2,2,2,2,2,1,2,2,97,7,99,México,97,2
2021-01-30,0d1515,1,12,02,1,02,02,004,2,2020-05-26,2020-05-20,2020-06-01,2,1,47,1,2,2,2,1,2,2,2,2,2,2,2,2,2,2,1,1,2,97,3,99,México,97,2
2021-01-30,14b435,1,12,02,1,02,02,004,2,2020-05-27,2020-05-20,2020-06-01,2,1,80,1,2,2,2,1,2,2,2,1,2,2,2,2,2,2,1,1,2,97,3,99,México,97,2
2021-01-30,1d10b8,1,4,02,1,09,02,004,2,2020-05-29,2020-05-26,2020-06-01,1,1,61,1,2,2,2,2,2,2,2,1,2,2,1,2,2,99,1,1,2,97,3,99,México,97,2
2021-01-30,1c42ba,2,4,02,2,11,02,004,2,2020-05-31,2020-05-31,2020-06-01,2,2,73,1,97,2,2,2,2,2,2,2,1,2,2,2,2,99,1,2,2,97,7,99,México,97,2
2021-01-30,0f1a0f,1,4,02,1,25,02,004,2,2020-05-31,2020-05-31,2020-06-01,2,2,73,1,2,2,2,2,2,2,2,2,2,2,2,2,2,2,2,97,2,97,6,99,México,97,2
2021-01-30,0b1a40,1,12,02,2,16,02,004,2,2020-05-29,2020-05-27,2020-06-01,2,1,32,1,97,2,2,2,2,2,2,2,2,2,2,2,2,2,1,2,2,97,7,99,México,97,2
2021-01-30,174de0,1,12,02,2,02,02,004,2,2020-06-01,2020-05-30,2020-06-01,2,1,47,1,97,2,2,1,2,2,2,1,2,2,2,2,2,2,1,1,2,97,3,99,México,97,2
2021-01-30,17d568,2,4,02,2,18,02,004,2,2020-06-01,2020-05-18,2020-06-01,2,2,55,1,97,2,2,2,2,2,2,2,2,2,2,2,2,99,1,1,2,97,3,99,México,97,2
