2021-01-30,2da92d,1,12,02,1,06,02,004,2,2020-11-16,2020-11-07,2020-11-29,2,1,55,1,2,99,99,1,2,2,2,1,2,2,2,2,2,2,1,1,2,97,3,99,México,97,2
2021-01-30,3d4a27,1,12,02,2,30,02,004,2,2020-11-16,2020-11-15,2020-11-29,2,1,52,1,97,99,99,2,2,2,2,2,2,2,2,2,2,2,1,1,2,97,3,99,México,97,2
2021-01-30,2affce,2,4,02,2,14,02,004,2,2020-11-20,2020-11-13,2020-11-29,2,1,71,1,97,2,2,2,2,2,2,1,1,1,2,2,2,2,1,1,2,97,3,99,México,97,2
2021-01-30,1ed009,2,4,02,2,02,02,004,2,2020-11-21,2020-11-14,2020-11-29,1,1,64,1,97,2,2,1,2,2,2,1,2,2,1,2,2,2,1,1,2,97,3,99,México,97,2
2021-01-30,403e7f,1,4,02,2,25,02,004,2,2020-11-22,2020-11-20,2020-11-29,2,2,72,1,97,2,2,2,2,2,2,1,1,2,2,2,1,2,1,1,2,97,3,99,México,97,2
2021-01-30,38f9a6,2,4,02,2,25,02,004,2,2020-11-19,2020-11-17,2020-11-29,1,1,22,1,97,2,2,2,2,2,2,2,2,2,2,2,2,2,1,4,2,97,5,99,México,97,2
2021-01-30,3e3198,2,4,02,1,26,02,004,2,2020-11-20,2020-11-20,2020-11-29,2,2,66,1,2,2,2,1,2,1,2,1,1,2,2,2,2,2,1,1,2,97,3,99,México,97,2
2021-01-30,3cd886,1,12,02,2,02,02,004,2,2020-11-25,2020-11-18,2020-11-29,2,1,84,1,97,2,2,2,2,2,2,2,2,2,2,2,2,2,1,1,2,97,3,99,México,97,2
2021-01-30,3b87ad,2,4,02,2,12,02,004,2,2020-11-26,2020-11-24,2020-11-29,2,2,72,1,97,2,2,1,2,2,2,1,2,2,2,2,2,2,1,1,2,97,3,99,México,97,2
2021-01-30,2671a1,2,4,02,2,24,02,004,2,2020-11-28,2020-11-24,2020-11-29,2,1,61,1,97,2,2,2,2,2,2,1,2,2,2,2,2,2,1,1,2,97,3,99,México,97,2
2021-01-30,2df4f8,2,4,02,2,07,02,004,2,2020-11-29,2020-11-24,2020-11-29,2,1,72,1,97,2,2,2,2,2,2,2,2,2,2,2,2,2,1,1,2,97,3,99,México,97,2
