2021-01-30,0d9e1f,1,12,02,2,02,02,004,2,2020-04-06,2020-04-01,2020-04-19,2,1,64,1,97,2,2,1,2,2,2,1,2,2,2,2,2,99,1,1,2,97,3,99,México,97,1
2021-01-30,173741,2,4,02,2,12,02,004,2,2020-04-04,2020-04-04,2020-04-19,1,2,41,1,97,2,2,2,2,2,2,2,2,2,2,2,2,99,1,1,2,97,3,99,México,97,2
2021-01-30,1598bb,1,12,02,2,14,02,004,2,2020-04-06,2020-04-04,2020-04-19,2,1,46,1,97,2,2,1,2,2,2,2,2,2,2,2,2,99,1,1,2,97,3,99,México,97,2
2021-01-30,1c487b,1,12,02,2,09,02,004,2,2020-04-10,2020-04-09,2020-04-19,1,1,60,1,97,2,2,2,2,2,2,2,2,2,2,2,2,99,1,1,2,97,3,99,México,97,1
2021-01-30,005dd1,1,12,02,2,20,02,004,2,2020-04-09,2020-04-04,2020-04-19,2,1,60,1,97,2,2,2,2,2,1,2,2,2,2,2,2,99,1,1,2,97,3,99,México,97,2
2021-01-30,0f6009,1,4,02,2,02,02,004,2,2020-04-10,2020-04-02,2020-04-19,1,1,48,1,97,2,2,1,1,2,2,1,2,2,2,2,2,99,1,1,2,97,3,99,México,97,2
2021-01-30,123a4a,1,12,02,1,14,02,004,2,2020-04-12,2020-04-06,2020-04-19,2,1,71,1,2,2,2,2,2,2,2,1,2,2,2,2,2,99,1,1,2,97,3,99,México,97,2
2021-01-30,17943f,2,12,02,2,26,02,004,2,2020-04-13,2020-04-10,2020-04-19,2,1,68,1,97,2,2,2,2,2,2,1,2,2,2,2,2,2,1,1,2,97,3,99,México,97,2
2021-01-30,04cfe7,2,4,02,2,11,02,004,2,2020-04-12,2020-04-05,2020-04-19,2,1,82,1,97,2,2,1,2,2,2,2,2,2,2,2,2,99,1,1,2,97,3,99,México,97,2
2021-01-30,0d83f7,1,12,02,1,02,02,004,2,2020-04-13,2020-04-09,2020-04-19,2,1,58,1,2,2,2,2,2,2,2,2,2,2,2,2,2,1,1,1,2,97,3,99,México,97,2
2021-01-30,107f8d,2,4,02,2,30,02,004,2,2020-04-12,2020-04-03,2020-04-19,2,1,69,1,97,2,2,1,2,2,2,1,2,2,1,2,2,99,2,97,2,97,6,99,México,97,2
2021-01-30,198674,1,4,02,2,20,02,004,2,2020-04-15,2020-04-12,2020-04-19,2,1,49,1,97,2,2,1,2,2,2,2,2,2,2,2,1,99,1,1,2,97,3,99,México,97,2
2021-01-30,07cbde,1,4,02,2,14,02,004,2,2020-04-13,2020-04-05,2020-04-19,2,1,63,1,97,2,2,2,2,2,2,1,2,2,2,2,1,99,2,97,2,97,6,99,México,97,2
2021-01-30,0a8c5c,1,4,02,2,08,02,004,2,2020-04-14,2020-04-14,2020-04-19,2,1,76,1,97,2,2,1,2,2,2,1,2,2,2,2,2,99,1,1,2,97,3,99,México,97,2
2021-01-30,14dd8a,1,4,02,2,26,02,004,2,2020-04-17,2020-04-10,2020-04-19,2,1,38,1,97,2,2,2,2,2,2,2,2,2,1,2,2,99,1,2,2,97,7,99,México,97,2
2021-01-30,0e365c,1,4,02,1,30,02,004,2,2020-04-18,2020-04-15,2020-04-19,2,1,67,1,2,2,2,1,2,2,2,1,1,2,2,2,2,99,2,97,2,97,6,99,México,97,2
2021-01-30,19894e,2,4,02,2,25,02,004,2,2020-04-17,2020-04-11,2020-04-19,99,2,45,1,97,2,2,2,2,2,2,2,2,2,1,2,2,99,2,97,2,97,6,99,México,97,99
2021-01-30,03ad77,2,4,02,1,02,02,004,2,2020-04-10,2020-04-10,2020-04-19,2,1,49,1,2,2,2,2,2,2,2,1,1,2,2,2,2,99,2,97,2,97,6,99,México,97,2
2021-01-30,13e374,2,4,02,1,02,02,004,2,2020-04-18,2020-04-12,2020-04-19,1,1,50,1,2,2,2,1,2,2,2,1,2,2,1,2,2,99,1,1,2,97,3,99,México,97,2
2021-01-30,1479f4,2,4,02,1,24,02,004,2,2020-04-19,2020-04-12,2020-04-19,2,2,50,1,2,2,2,1,2,2,1,1,2,2,2,1,2,99,2,97,2,97,6,99,México,97,2
2021-01-30,0e6ab6,2,4,02,2,01,02,004,2,2020-04-17,2020-04-14,2020-04-19,2,1,61,1,97,2,2,1,2,2,2,1,2,2,2,2,2,99,2,97,2,97,6,99,México,97,2
2021-01-30,0f461a,2,4,02,2,03,02,004,2,2020-04-19,2020-04-12,2020-04-19,2,2,70,1,97,2,2,2,2,2,2,2,2,2,2,2,2,99,2,97,2,97,6,99,México,97,2
2021-01-30,14d32a,2,4,02,2,25,02,004,2,2020-04-18,2020-04-08,2020-04-19,2,1,49,1,97,2,2,2,2,2,2,2,2,2,2,2,1,99,2,97,2,97,6,99,México,97,2
2021-01-30,0c61d1,2,4,02,2,14,02,004,2,2020-04-19,2020-04-13,2020-04-19,1,2,40,1,97,2,2,2,2,2,2,1,2,2,2,2,2,99,2,97,2,97,6,99,México,97,2
2021-01-30,174318,2,4,02,1,18,02,004,2,2020-04-19,2020-04-13,2020-04-19,2,2,69,1,2,2,2,2,2,2,2,1,2,2,2,2,2,99,2,97,2,97,6,99,México,97,2
2021-01-30,09d3f9,2,4,02,2,20,02,004,2,2020-04-19,2020-04-16,2020-04-19,2,1,26,1,97,2,2,2,2,2,2,2,1,2,2,2,2,99,2,97,2,97,6,99,México,97,2
