2021-01-30,0e7aaa,2,4,02,2,07,02,004,2,2020-06-06,2020-05-30,2020-06-25,2,2,61,1,97,2,2,1,2,2,2,2,2,2,2,2,2,99,1,1,2,97,3,99,México,97,2
2021-01-30,0d0b94,2,3,02,2,02,02,004,2,2020-06-08,2020-06-07,2020-06-25,2,1,68,1,97,2,2,98,98,98,98,98,98,98,98,98,98,1,1,1,2,97,3,99,México,97,2
2021-01-30,1b4cf3,1,12,02,1,02,02,004,2,2020-06-16,2020-06-11,2020-06-25,2,1,74,1,2,2,2,2,2,2,2,1,2,2,2,2,2,2,1,4,2,97,5,99,México,97,2
2021-01-30,1028af,1,12,02,2,02,02,004,2,2020-06-17,2020-06-16,2020-06-25,1,1,51,1,97,2,2,2,2,2,2,2,2,2,2,1,2,2,1,2,2,97,7,99,México,97,2
2021-01-30,1d9dbc,1,12,02,1,02,02,004,2,2020-06-17,2020-06-10,2020-06-25,1,1,65,1,2,2,2,1,2,2,2,1,2,2,2,2,2,2,1,1,2,97,3,99,México,97,2
2021-01-30,0ba4fc,1,12,02,2,32,02,004,2,2020-06-17,2020-06-12,2020-06-25,2,1,38,1,97,2,2,2,2,2,2,2,2,2,2,2,2,2,1,2,2,97,7,99,México,97,2
2021-01-30,035945,2,4,02,2,02,02,004,2,2020-06-23,2020-06-09,2020-06-25,2,1,26,1,97,2,2,2,2,2,2,2,2,2,2,2,2,99,1,1,2,97,3,99,México,97,2
2021-01-30,051a6a,1,12,02,2,21,02,004,2,2020-06-23,2020-06-22,2020-06-25,2,1,36,1,97,99,99,2,2,2,2,2,2,2,2,2,2,99,1,2,2,97,7,99,México,97,2
