2021-01-30,02c47e,1,12,02,1,12,02,004,2,2020-07-07,2020-06-27,2020-08-18,2,1,48,1,2,99,99,2,2,2,2,2,2,2,1,2,2,1,1,1,2,97,3,99,México,97,2
2021-01-30,06eb9e,1,12,02,2,14,02,004,2,2020-07-24,2020-07-14,2020-08-18,1,1,58,1,97,99,99,2,2,2,2,2,2,2,2,2,2,99,1,2,2,97,7,99,México,97,2
2021-01-30,14f214,2,12,02,1,22,02,004,2,2020-08-13,2020-08-11,2020-08-18,1,2,75,1,2,2,2,2,2,2,2,2,2,2,1,2,2,1,1,1,2,97,3,99,México,97,1
2021-01-30,163e22,2,4,02,1,02,02,004,2,2020-08-17,2020-08-11,2020-08-18,1,1,51,1,2,2,2,1,2,2,2,1,2,2,1,2,2,2,1,1,2,97,3,99,México,97,2
2021-01-30,0ec02c,2,4,02,2,11,02,004,2,2020-08-16,2020-08-10,2020-08-18,2,1,77,1,97,2,2,1,2,2,2,2,1,2,2,1,2,2,1,1,2,97,3,99,México,97,2
2021-01-30,0eccc6,1,4,02,2,10,02,004,2,2020-08-13,2020-08-12,2020-08-18,1,1,67,1,97,2,2,2,2,1,2,1,1,2,2,1,1,1,1,1,2,97,3,99,México,97,2
2021-01-30,0240f0,1,4,25,2,25,02,004,2,2020-08-17,2020-08-07,2020-08-18,2,2,52,1,97,2,2,1,2,2,2,2,2,2,2,2,2,2,1,1,2,97,3,99,México,97,2
2021-01-30,046a11,2,4,02,2,09,02,004,2,2020-08-18,2020-08-13,2020-08-18,2,1,45,1,97,2,2,1,2,2,2,1,2,2,2,1,2,2,1,1,2,97,3,99,México,97,2
2021-01-30,23fb30,2,4,02,2,11,02,004,2,2020-08-15,2020-08-15,2020-08-18,2,1,47,1,97,2,2,2,2,2,2,2,1,2,2,1,1,2,2,97,2,97,6,99,México,97,2
