2021-01-30,3e73ab,2,4,02,2,02,02,004,2,2020-12-16,2020-12-09,2021-01-12,1,1,61,1,97,2,2,2,2,1,2,1,2,2,2,2,2,2,1,1,2,97,3,99,México,97,2
2021-01-30,2f1980,2,4,02,2,01,02,004,2,2020-12-17,2020-12-16,2021-01-12,2,1,66,1,97,2,2,1,2,2,2,1,1,2,1,2,2,2,1,4,2,97,5,99,México,97,2
2021-01-30,3d65d0,1,4,02,2,09,02,004,2,2020-12-18,2020-12-11,2021-01-12,2,1,82,1,97,2,2,1,2,2,2,1,2,2,2,1,2,2,1,2,2,97,7,99,México,97,2
2021-01-30,2d0667,2,4,02,2,13,02,004,2,2020-12-18,2020-12-13,2021-01-12,1,2,66,1,97,2,2,1,2,2,2,1,2,2,2,2,2,2,1,2,2,97,7,99,México,97,2
2021-01-30,1fb524,1,4,02,1,22,02,004,2,2020-12-25,2020-12-20,2021-01-12,2,2,70,1,2,2,2,2,2,2,2,2,2,2,2,2,2,2,1,1,2,97,3,99,México,97,2
2021-01-30,37857e,2,4,02,1,14,02,004,2,2020-12-26,2020-12-19,2021-01-12,2,1,69,1,2,2,2,1,2,2,2,1,2,2,2,2,2,2,1,1,2,97,3,99,México,97,2
2021-01-30,20cf4a,2,4,02,1,18,02,004,2,2020-12-28,2020-12-20,2021-01-12,1,2,64,1,2,2,2,2,2,2,2,1,2,2,2,2,2,2,1,1,2,97,3,99,México,97,2
2021-01-30,3ac8cc,1,12,02,1,07,02,004,2,2020-12-29,2020-12-22,2021-01-12,1,1,66,1,2,99,99,1,1,2,2,2,1,1,2,2,2,2,1,1,2,97,3,99,México,97,2
2021-01-30,304d27,2,4,02,2,14,02,004,2,2020-12-29,2020-12-22,2021-01-12,2,1,71,1,97,2,2,2,2,2,2,2,2,2,2,2,2,2,1,2,2,97,7,99,México,97,2
2021-01-30,203f6e,1,4,02,1,14,02,004,2,2020-12-31,2020-12-30,2021-01-12,2,2,73,1,2,2,2,1,2,2,2,1,2,2,2,2,2,2,1,2,2,97,7,99,México,97,2
2021-01-30,3e3218,2,4,02,2,25,02,004,2,2021-01-03,2020-12-29,2021-01-12,2,1,31,1,97,2,2,2,2,2,2,2,2,2,2,2,2,2,1,1,1,2,3,99,México,97,2
2021-01-30,33a193,2,4,02,2,02,02,004,2,2021-01-04,2020-12-25,2021-01-12,2,1,39,1,97,2,2,2,2,2,2,2,2,2,2,2,2,2,2,97,1,1,3,99,México,97,2
2021-01-30,2c455a,1,12,02,1,14,02,004,2,2021-01-04,2020-12-25,2021-01-12,2,1,60,1,2,99,99,1,2,2,2,1,2,2,2,2,2,1,1,1,2,97,3,99,México,97,2
2021-01-30,23ea3f,1,12,02,2,02,02,004,2,2021-01-04,2020-12-28,2021-01-12,2,1,56,1,97,99,99,2,2,2,2,2,2,2,2,2,1,2,1,1,2,97,3,99,México,97,2
2021-01-30,406b11,1,12,02,1,25,02,004,2,2021-01-06,2021-01-04,2021-01-12,2,1,63,1,2,99,99,2,2,2,2,1,2,2,2,2,2,99,1,1,2,97,3,99,México,97,2
2021-01-30,356b10,2,4,02,2,21,02,004,2,2021-01-07,2020-12-31,2021-01-12,2,1,66,1,97,2,2,1,2,2,2,1,2,2,2,2,2,2,2,97,1,1,3,99,México,97,2
2021-01-30,23f1c7,1,12,02,1,26,02,004,2,2021-01-04,2020-12-25,2021-01-12,2,1,62,1,2,99,99,2,2,2,1,1,2,2,2,2,2,99,1,1,2,97,3,99,México,97,2
2021-01-30,3851d5,2,4,02,2,02,02,004,2,2021-01-07,2021-01-07,2021-01-12,2,1,56,1,97,2,2,1,2,2,2,1,2,2,1,2,2,2,1,2,1,2,7,99,México,97,2
2021-01-30,3c4701,1,12,02,1,16,02,004,2,2021-01-04,2020-12-25,2021-01-12,2,1,72,1,2,99,99,1,2,2,2,1,2,2,2,2,2,2,1,1,2,97,3,99,México,97,2
2021-01-30,25840e,2,4,02,1,09,02,004,2,2021-01-07,2020-12-27,2021-01-12,2,1,74,1,2,2,2,1,2,2,2,1,2,2,2,2,2,2,1,1,1,2,3,99,México,97,2
2021-01-30,2b006c,2,4,02,2,11,02,004,2,2021-01-10,2021-01-10,2021-01-12,2,2,45,1,97,2,2,1,2,2,2,1,2,2,2,1,1,2,1,2,1,2,7,99,México,97,2
2021-01-30,291bfb,2,4,02,2,09,02,004,2,2021-01-11,2020-12-28,2021-01-12,2,1,62,1,97,2,2,2,2,2,2,2,2,2,2,2,2,2,2,97,1,1,3,99,México,97,2
2021-01-30,42b9a6,1,12,02,2,16,02,004,2,2020-12-30,2020-12-28,2021-01-12,1,2,82,1,97,99,99,2,2,2,2,1,2,2,2,2,2,2,1,1,2,97,3,99,México,97,2
2021-01-30,25a003,2,4,02,2,12,02,004,2,2021-01-09,2021-01-04,2021-01-12,2,1,51,1,97,2,2,2,2,2,2,2,2,2,2,2,2,2,1,1,2,97,3,99,México,97,2
2021-01-30,1fdc36,2,4,02,2,25,02,004,1,2020-12-04,2020-11-29,2021-01-12,97,2,31,1,97,2,2,2,2,2,2,2,2,2,2,2,2,2,1,4,2,97,6,99,México,97,97
